lab1/multiple_ports/top.vcd
$date
    Jun 20, 2023  09:21:44
$end
$version
    TOOL:	xmsim	21.03-s001
$end
$timescale
    1 ns
$end

$scope module top $end
$var reg       1 !    clk $end

$scope module intf_ins $end
$var wire      1 "    clk  $end
$var reg       1 #    rst $end
$var reg       1 $    d $end
$var reg       1 %    t $end
$var reg       1 &    qsr $end
$var reg       1 '    qjk $end
$var reg       1 (    qd $end
$var reg       1 )    qt $end
$var reg       1 *    s $end
$var reg       1 +    r $end
$var reg       1 ,    j $end
$var reg       1 -    k $end

$scope clocking cb $end
$var reg       1 .    d $end
$var reg       1 /    t $end
$var reg       1 0    s $end
$var reg       1 1    r $end
$var reg       1 2    j $end
$var reg       1 3    k $end
$var reg       1 4    qsr $end
$var reg       1 5    qjk $end
$var reg       1 6    qd $end
$var reg       1 7    qt $end
$upscope $end

$upscope $end


$scope module dut_ins $end
$var wire      1 8    j  $end
$var wire      1 9    k  $end
$var wire      1 :    s  $end
$var wire      1 ;    r  $end
$var wire      1 <    d  $end
$var wire      1 =    t  $end
$var wire      1 >    rst  $end
$var wire      1 "    clk  $end
$var reg       1 ?    qjk $end
$var reg       1 @    qsr $end
$var reg       1 A    qd $end
$var reg       1 B    qt $end
$upscope $end

$upscope $end

$enddefinitions $end
$dumpvars
0!
0"
0#
x$
x%
x&
x'
x(
x)
x*
x+
x,
x-
x.
x/
x0
x1
x2
x3
x4
x5
x6
x7
x8
x9
x:
x;
x<
x=
0>
x?
x@
xA
xB
$end
#5
1!
1"
#10
0!
0"
1#
1>
0?
0@
0A
0B
0)
0(
0&
0'
#15
1!
1"
04
05
06
07
1$
1.
1%
1/
0*
00
1+
11
1,
12
1-
13
19
18
1;
0:
1=
1<
#20
0!
0"
0#
0>
#25
1!
1"
1?
1A
1B
1)
1(
1'
0$
0.
1*
10
0+
01
0;
1:
0<
#30
0!
0"
#35
1!
1"
15
16
17
0?
1@
0A
0B
0)
0(
1&
0'
1$
1.
0%
0/
0-
03
09
0=
1<
#40
0!
0"
#45
1!
1"
14
05
06
07
1?
1A
1(
1'
0$
0.
1+
11
0,
02
1-
13
19
08
1;
0<
#50
0!
0"
#55
1!
1"
15
16
0?
x@
0A
0(
x&
0'
1$
1.
1%
1/
0*
00
0:
1=
1<
#60
0!
0"
#65
1!
1"
x4
05
06
0@
1A
1B
1)
1(
0&
0$
0.
1*
10
0+
01
0-
03
09
0;
1:
0<
#70
0!
0"
#75
1!
1"
04
16
17
1@
0A
0B
0)
0(
1&
1$
1.
0*
00
1+
11
1,
12
1-
13
19
18
1;
0:
1<
#80
0!
0"
#85
1!
1"
14
06
07
1?
0@
1A
1B
1)
1(
0&
1'
0%
0/
0+
01
0;
0=
#90
0!
0"
#95
1!
1"
04
15
16
17
0?
0'
0,
02
0-
03
09
08
#100
0!
0"
#105
1!
1"
05
0$
0.
1+
11
1,
12
18
1;
0<
#110
0!
0"
#115
1!
1"
1?
0A
0(
1'
1$
1.
1%
1/
0+
01
1-
13
19
0;
1=
1<
#120
0!
0"
#125
1!
1"
15
06
0?
1A
0B
0)
1(
0'
1*
10
0,
02
08
1:
#130
0!
0"
#135
1!
1"
05
16
07
1@
1B
1)
1&
0$
0.
0*
00
1,
12
18
0:
0<
#140
0!
0"
#145
1!
1"
14
17
1?
0A
0B
0)
0(
1'
1$
1.
0%
0/
1*
10
1:
0=
1<
#150
0!
0"
#155
1!
1"
15
06
07
0?
1A
1(
0'
0$
0.
1+
11
0,
02
0-
03
09
08
1;
0<
#160
0!
0"
#165
1!
1"
05
16
x@
0A
0(
x&
1$
1.
1%
1/
1=
1<
#170
0!
0"
#175
1!
1"
x4
06
1A
1B
1)
1(
1,
12
18
#180
0!
0"
#185
1!
1"
16
17
1?
0B
0)
1'
0$
0.
0%
0/
0+
01
0,
02
08
0;
0=
0<
#190
0!
0"
#195
1!
1"
15
07
1@
0A
0(
1&
1$
1.
1%
1/
0*
00
1,
12
1-
13
19
18
0:
1=
1<
#200
0!
0"
#205
1!
1"
14
06
0?
1A
1B
1)
1(
0'
0$
0.
0%
0/
1*
10
1:
0=
0<
#210
0!
0"
#215
1!
1"
05
16
17
1?
0A
0(
1'
1$
1.
1%
1/
1+
11
0,
02
08
1;
1=
1<
#220
0!
0"
#225
1!
1"
15
06
0?
x@
1A
0B
0)
1(
x&
0'
0%
0/
0+
01
0-
03
09
0;
0=
#230
0!
0"
#235
1!
1"
x4
05
16
07
1@
1&
0$
0.
0*
00
1,
12
1-
13
19
18
0:
0<
#240
0!
0"
#245
1!
1"
14
1?
0A
0(
1'
1$
1.
1*
10
0,
02
0-
03
09
08
1:
1<
#250
0!
0"
#255
1!
1"
15
06
1A
1(
1%
1/
0*
00
1+
11
1-
13
19
1;
0:
1=
#260
0!
0"
#265
1!
1"
16
0?
0@
1B
1)
0&
0'
0$
0.
1*
10
0-
03
09
1:
0<
#270
0!
0"
#275
1!
1"
04
05
17
x@
0A
0B
0)
0(
x&
0%
0/
0*
00
0+
01
1,
12
1-
13
19
18
0;
0:
0=
#280
0!
0"
#285
1!
1"
x4
06
07
1?
1'
1+
11
0-
03
09
1;
#290
0!
0"
#295
1!
1"
15
0@
0&
1%
1/
1*
10
0,
02
08
1:
1=
#300
0!
0"
#305
1!
1"
04
x@
1B
1)
x&
0%
0/
0*
00
0+
01
1,
12
18
0;
0:
0=
#310
0!
0"
#315
1!
1"
x4
17
1*
10
1-
13
19
1:
#320
0!
0"
#325
1!
1"
0?
1@
1&
0'
0*
00
0-
03
09
0:
#330
0!
0"
#335
1!
1"
14
05
1?
1'
1%
1/
1+
11
1-
13
19
1;
1=
#340
0!
0"
#345
1!
1"
15
0?
0@
0B
0)
0&
0'
1$
1.
1*
10
0,
02
0-
03
09
08
1:
1<
#350
0!
0"
#355
1!
1"
04
05
07
x@
1A
1B
1)
1(
x&
1,
12
18
#360
0!
0"
#365
1!
1"
x4
16
17
1?
0B
0)
1'
0*
00
0+
01
0,
02
08
0;
0:
#370
0!
0"
#375
1!
1"
15
07
1B
1)
0$
0.
1,
12
18
0<
#380
0!
0"
#385
1!
1"
17
0A
0B
0)
0(
#390
0!
0"
#395
1!
1"
06
07
1B
1)
1*
10
1+
11
0,
02
08
1;
1:
#400
0!
0"
#405
1!
1"
17
0B
0)
0%
0/
0*
00
0+
01
1,
12
18
0;
0:
0=
#410
0!
0"
#415
1!
1"
07
1%
1/
1+
11
0,
02
08
1;
1=
#420
0!
0"
#425
1!
1"
0@
1B
1)
0&
1$
1.
1*
10
0+
01
1,
12
1-
13
19
18
0;
1:
1<
#430
0!
0"
#435
1!
1"
04
17
0?
1@
1A
0B
0)
1(
1&
0'
0$
0.
0%
0/
0*
00
1+
11
1;
0:
0=
0<
#440
0!
0"
#445
1!
1"
14
05
16
07
1?
0@
0A
0(
0&
1'
1$
1.
1*
10
0+
01
0,
02
08
0;
1:
1<
#450
0!
0"
#455
1!
1"
04
15
06
0?
1@
1A
1(
1&
0'
0*
00
1+
11
0-
03
09
1;
0:
#460
0!
0"
#465
1!
1"
14
05
16
0@
0&
0$
0.
1%
1/
1*
10
1-
13
19
1:
1=
0<
#470
0!
0"
#475
1!
1"
04
x@
0A
1B
1)
0(
x&
0%
0/
0*
00
0+
01
1,
12
0-
03
09
18
0;
0:
0=
#480
0!
0"
#485
1!
1"
x4
06
17
1?
1'
1$
1.
1*
10
1+
11
1-
13
19
1;
1:
1<
#490
0!
0"
#495
1!
1"
15
0?
1A
1(
0'
0$
0.
0-
03
09
0<
