lab1/jk_latch/top.vcd
$date
    May 17, 2023  09:47:14
$end
$version
    TOOL:	xmsim	21.03-s001
$end
$timescale
    1 ns
$end

$scope module top $end
$var reg       1 !    clk $end

$scope module in $end
$var wire      1 "    clk  $end
$var reg       1 #    reset $end
$var reg       1 $    j $end
$var reg       1 %    k $end
$var reg       1 &    q $end
$var reg       1 '    qb $end
$upscope $end

$upscope $end

$enddefinitions $end
$dumpvars
0!
0"
0#
1$
0%
x&
x'
$end
#5
1!
1"
1&
0'
#10
1#
0$
1%
0!
0"
0&
1'
#15
1!
1"
#20
0#
1$
0%
0!
0"
#25
1!
1"
1&
0'
#30
0$
0!
0"
#35
1!
1"
#40
1%
0!
0"
#45
1!
1"
0&
1'
#50
1$
0%
0!
0"
#55
1!
1"
1&
0'
#60
1%
0!
0"
#65
1!
1"
0&
1'
#70
x$
0!
0"
