USR/usr_oops/xrun.log
xrun: 21.03-s001: (c) Copyright 1995-2021 Cadence Design Systems, Inc.
TOOL:	xrun	21.03-s001: Started on May 22, 2023 at 10:25:06 IST
xrun
	+access+r
	+nccoverage+all
	-covoverwrite
	usr.v
	test.sv
	top.sv
	usr_inter.sv
xrun: *W,OPDEPRREN: Command Line Option (+nccoverage+all) is deprecated. Use (+xmcoverage+all) instead.
Recompiling... reason: file './test.sv' is newer than expected.
	expected: Mon May 22 10:23:30 2023
	actual:   Mon May 22 10:25:03 2023
file: test.sv
	program worklib.test:sv
		errors: 0, warnings: 0
		Caching library 'worklib' ....... Done
	Elaborating the design hierarchy:
	Top level design units:
		$unit_0x4705692e
		top
xmelab: *W,DSEMEL: This SystemVerilog design will be simulated as per IEEE 1800-2009 SystemVerilog simulation semantics. Use -disable_sem2009 option for turning off SV 2009 simulation semantics.

	Extracting FSMs for coverage:
		worklib.usr
		worklib.test
		worklib.top
	Total FSMs extracted = 0
	Building instance overlay tables: .................... Done
	Enabling instrumentation for coverage types: block expression FSM toggle functional
xmelab: *W,COVDCL: By default expression coverage is scored only for Verilog logical operators (|| and &&) and VHDL logical operators (OR, AND, NOR, and NAND), and is scored only in condition expressions. To score coverage for other operators and for expressions in other statements, use the "set_expr_coverable_operators" and "set_expr_coverable_statements" coverage configuration file commands with suitable options at elaboration.
	Generating native compiled code:
		worklib.test:sv <0x12225917>
			streams:   2, words:  3556
	Building instance specific data structures.
	Loading native compiled code:     .................... Done
	Design hierarchy summary:
		                    Instances  Unique
		Modules:                    2       2
		Interfaces:                 1       1
		Programs:                   1       1
		Registers:                 16      17
		Scalar wires:               8       -
		Vectored wires:             3       -
		Always blocks:              2       2
		Initial blocks:             3       3
		Clocking blocks:            1       1
		Clocking items:             6       6
		Pseudo assignments:         8       8
		Compilation units:          1       1
		SV Class declarations:      1       1
		SV Class specializations:   1       1
	Writing initial simulation snapshot: worklib.top:sv
Loading snapshot worklib.top:sv .................... Done
xmsim: *W,DSEM2009: This SystemVerilog design is simulated as per IEEE 1800-2009 SystemVerilog simulation semantics. Use -disable_sem2009 option for turning off SV 2009 simulation semantics.
xcelium> source /cadence_tools/XCELIUM2103/tools/xcelium/files/xmsimrc
xcelium> run
time=                   0, clk=0, reset=0, pout = xxxx
time=                   5, clk=1, reset=0, pout = xxxx
time=                  10, clk=0, reset=0, pout = xxxx
time=                  15, clk=1, reset=1, pout = 0000
time=                  20, clk=0, reset=1, pout = 0000
time=                  25, clk=1, reset=0, pout = 0000
time=                  30, clk=0, reset=0, pout = 0000
time=                  35, clk=1, reset=0, pout = 0000
time=                  40, clk=0, reset=0, pout = 0000
time=                  45, clk=1, reset=0, pout = 1101
time=                  50, clk=0, reset=0, pout = 1101
time=                  55, clk=1, reset=0, pout = 1011
time=                  60, clk=0, reset=0, pout = 1011
time=                  65, clk=1, reset=0, pout = 0111
time=                  70, clk=0, reset=0, pout = 0111
time=                  75, clk=1, reset=0, pout = 0011
time=                  80, clk=0, reset=0, pout = 0011
time=                  85, clk=1, reset=0, pout = 0001
time=                  90, clk=0, reset=0, pout = 0001
time=                  95, clk=1, reset=0, pout = 1010
time=                 100, clk=0, reset=0, pout = 1010
time=                 105, clk=1, reset=0, pout = 0000
time=                 110, clk=0, reset=0, pout = 0000
time=                 115, clk=1, reset=0, pout = 1000
time=                 120, clk=0, reset=0, pout = 1000
time=                 125, clk=1, reset=0, pout = 1110
time=                 130, clk=0, reset=0, pout = 1110
time=                 135, clk=1, reset=0, pout = 1010
time=                 140, clk=0, reset=0, pout = 1010
time=                 145, clk=1, reset=0, pout = 0000
time=                 150, clk=0, reset=0, pout = 0000
time=                 155, clk=1, reset=0, pout = 0000
time=                 160, clk=0, reset=0, pout = 0000
time=                 165, clk=1, reset=0, pout = 0000
time=                 170, clk=0, reset=0, pout = 0000
time=                 175, clk=1, reset=0, pout = 0000
time=                 180, clk=0, reset=0, pout = 0000
time=                 185, clk=1, reset=0, pout = 1010
time=                 190, clk=0, reset=0, pout = 1010
time=                 195, clk=1, reset=0, pout = 1101
time=                 200, clk=0, reset=0, pout = 1101
time=                 205, clk=1, reset=0, pout = 0000
time=                 210, clk=0, reset=0, pout = 0000
time=                 215, clk=1, reset=0, pout = 1000
time=                 220, clk=0, reset=0, pout = 1000
time=                 225, clk=1, reset=0, pout = 0000
time=                 230, clk=0, reset=0, pout = 0000
time=                 235, clk=1, reset=0, pout = 1100
time=                 240, clk=0, reset=0, pout = 1100
time=                 245, clk=1, reset=0, pout = 0000
time=                 250, clk=0, reset=0, pout = 0000
time=                 255, clk=1, reset=0, pout = 0000
time=                 260, clk=0, reset=0, pout = 0000
time=                 265, clk=1, reset=0, pout = 1000
time=                 270, clk=0, reset=0, pout = 1000
time=                 275, clk=1, reset=0, pout = 1010
time=                 280, clk=0, reset=0, pout = 1010
time=                 285, clk=1, reset=0, pout = 0000
time=                 290, clk=0, reset=0, pout = 0000
time=                 295, clk=1, reset=0, pout = 0000
time=                 300, clk=0, reset=0, pout = 0000
time=                 305, clk=1, reset=0, pout = 0100
time=                 310, clk=0, reset=0, pout = 0100
time=                 315, clk=1, reset=0, pout = 1010
time=                 320, clk=0, reset=0, pout = 1010
time=                 325, clk=1, reset=0, pout = 0101
time=                 330, clk=0, reset=0, pout = 0101
time=                 335, clk=1, reset=0, pout = 0100
time=                 340, clk=0, reset=0, pout = 0100
time=                 345, clk=1, reset=0, pout = 0000
time=                 350, clk=0, reset=0, pout = 0000
time=                 355, clk=1, reset=0, pout = 0000
time=                 360, clk=0, reset=0, pout = 0000
time=                 365, clk=1, reset=0, pout = 0000
time=                 370, clk=0, reset=0, pout = 0000
time=                 375, clk=1, reset=0, pout = 0000
time=                 380, clk=0, reset=0, pout = 0000
time=                 385, clk=1, reset=0, pout = 0000
time=                 390, clk=0, reset=0, pout = 0000
time=                 395, clk=1, reset=0, pout = 1101
time=                 400, clk=0, reset=0, pout = 1101
time=                 405, clk=1, reset=0, pout = 0000
time=                 410, clk=0, reset=0, pout = 0000
time=                 415, clk=1, reset=0, pout = 0000
time=                 420, clk=0, reset=0, pout = 0000
time=                 425, clk=1, reset=0, pout = 0000
time=                 430, clk=0, reset=0, pout = 0000
time=                 435, clk=1, reset=0, pout = 0000
time=                 440, clk=0, reset=0, pout = 0000
time=                 445, clk=1, reset=0, pout = 0110
time=                 450, clk=0, reset=0, pout = 0110
time=                 455, clk=1, reset=0, pout = 0011
time=                 460, clk=0, reset=0, pout = 0011
time=                 465, clk=1, reset=0, pout = 0110
time=                 470, clk=0, reset=0, pout = 0110
time=                 475, clk=1, reset=0, pout = 1101
time=                 480, clk=0, reset=0, pout = 1101
time=                 485, clk=1, reset=0, pout = 0000
time=                 490, clk=0, reset=0, pout = 0000
time=                 495, clk=1, reset=0, pout = 0000
time=                 500, clk=0, reset=0, pout = 0000
time=                 505, clk=1, reset=0, pout = 1000
time=                 510, clk=0, reset=0, pout = 1000
time=                 515, clk=1, reset=0, pout = 1100
time=                 520, clk=0, reset=0, pout = 1100
time=                 525, clk=1, reset=0, pout = 0000
time=                 530, clk=0, reset=0, pout = 0000
time=                 535, clk=1, reset=0, pout = 1000
time=                 540, clk=0, reset=0, pout = 1000
time=                 545, clk=1, reset=0, pout = 1010
time=                 550, clk=0, reset=0, pout = 1010
time=                 555, clk=1, reset=0, pout = 0000
time=                 560, clk=0, reset=0, pout = 0000
time=                 565, clk=1, reset=0, pout = 0000
time=                 570, clk=0, reset=0, pout = 0000
time=                 575, clk=1, reset=0, pout = 0000
time=                 580, clk=0, reset=0, pout = 0000
time=                 585, clk=1, reset=0, pout = 0000
time=                 590, clk=0, reset=0, pout = 0000
time=                 595, clk=1, reset=0, pout = 1010
time=                 600, clk=0, reset=0, pout = 1010
time=                 605, clk=1, reset=0, pout = 0101
time=                 610, clk=0, reset=0, pout = 0101
time=                 615, clk=1, reset=0, pout = 1010
time=                 620, clk=0, reset=0, pout = 1010
time=                 625, clk=1, reset=0, pout = 0101
time=                 630, clk=0, reset=0, pout = 0101
time=                 635, clk=1, reset=0, pout = 1010
time=                 640, clk=0, reset=0, pout = 1010
time=                 645, clk=1, reset=0, pout = 1001
time=                 650, clk=0, reset=0, pout = 1001
time=                 655, clk=1, reset=0, pout = 1100
time=                 660, clk=0, reset=0, pout = 1100
time=                 665, clk=1, reset=0, pout = 0000
time=                 670, clk=0, reset=0, pout = 0000
time=                 675, clk=1, reset=0, pout = 1000
time=                 680, clk=0, reset=0, pout = 1000
time=                 685, clk=1, reset=0, pout = 0100
time=                 690, clk=0, reset=0, pout = 0100
time=                 695, clk=1, reset=0, pout = 1001
time=                 700, clk=0, reset=0, pout = 1001
time=                 705, clk=1, reset=0, pout = 0100
time=                 710, clk=0, reset=0, pout = 0100
time=                 715, clk=1, reset=0, pout = 0000
time=                 720, clk=0, reset=0, pout = 0000
time=                 725, clk=1, reset=0, pout = 0000
time=                 730, clk=0, reset=0, pout = 0000
time=                 735, clk=1, reset=0, pout = 1000
time=                 740, clk=0, reset=0, pout = 1000
time=                 745, clk=1, reset=0, pout = 0100
time=                 750, clk=0, reset=0, pout = 0100
time=                 755, clk=1, reset=0, pout = 0000
time=                 760, clk=0, reset=0, pout = 0000
time=                 765, clk=1, reset=0, pout = 1000
time=                 770, clk=0, reset=0, pout = 1000
time=                 775, clk=1, reset=0, pout = 0111
time=                 780, clk=0, reset=0, pout = 0111
time=                 785, clk=1, reset=0, pout = 1011
time=                 790, clk=0, reset=0, pout = 1011
time=                 795, clk=1, reset=0, pout = 0001
time=                 800, clk=0, reset=0, pout = 0001
time=                 805, clk=1, reset=0, pout = 0010
time=                 810, clk=0, reset=0, pout = 0010
time=                 815, clk=1, reset=0, pout = 0100
time=                 820, clk=0, reset=0, pout = 0100
time=                 825, clk=1, reset=0, pout = 0010
time=                 830, clk=0, reset=0, pout = 0010
time=                 835, clk=1, reset=0, pout = 0000
time=                 840, clk=0, reset=0, pout = 0000
time=                 845, clk=1, reset=0, pout = 0000
time=                 850, clk=0, reset=0, pout = 0000
time=                 855, clk=1, reset=0, pout = 0000
time=                 860, clk=0, reset=0, pout = 0000
time=                 865, clk=1, reset=0, pout = 0011
time=                 870, clk=0, reset=0, pout = 0011
time=                 875, clk=1, reset=0, pout = 0111
time=                 880, clk=0, reset=0, pout = 0111
time=                 885, clk=1, reset=0, pout = 1111
time=                 890, clk=0, reset=0, pout = 1111
time=                 895, clk=1, reset=0, pout = 1111
time=                 900, clk=0, reset=0, pout = 1111
time=                 905, clk=1, reset=0, pout = 1110
time=                 910, clk=0, reset=0, pout = 1110
time=                 915, clk=1, reset=0, pout = 0000
time=                 920, clk=0, reset=0, pout = 0000
time=                 925, clk=1, reset=0, pout = 1001
time=                 930, clk=0, reset=0, pout = 1001
time=                 935, clk=1, reset=0, pout = 1100
time=                 940, clk=0, reset=0, pout = 1100
time=                 945, clk=1, reset=0, pout = 0001
time=                 950, clk=0, reset=0, pout = 0001
time=                 955, clk=1, reset=0, pout = 0000
time=                 960, clk=0, reset=0, pout = 0000
time=                 965, clk=1, reset=0, pout = 0000
time=                 970, clk=0, reset=0, pout = 0000
time=                 975, clk=1, reset=0, pout = 0000
time=                 980, clk=0, reset=0, pout = 0000
time=                 985, clk=1, reset=0, pout = 0000
time=                 990, clk=0, reset=0, pout = 0000
time=                 995, clk=1, reset=0, pout = 0000
time=                1000, clk=0, reset=0, pout = 0000
time=                1005, clk=1, reset=0, pout = 0000
time=                1010, clk=0, reset=0, pout = 0000
time=                1015, clk=1, reset=0, pout = 0001
time=                1020, clk=0, reset=0, pout = 0001
time=                1025, clk=1, reset=0, pout = 0000
time=                1030, clk=0, reset=0, pout = 0000
time=                1035, clk=1, reset=0, pout = 0000
time=                1040, clk=0, reset=0, pout = 0000
time=                1045, clk=1, reset=0, pout = 0001
time=                1050, clk=0, reset=0, pout = 0001
time=                1055, clk=1, reset=0, pout = 0011
time=                1060, clk=0, reset=0, pout = 0011
time=                1065, clk=1, reset=0, pout = 1001
time=                1070, clk=0, reset=0, pout = 1001
time=                1075, clk=1, reset=0, pout = 1100
time=                1080, clk=0, reset=0, pout = 1100
time=                1085, clk=1, reset=0, pout = 1110
time=                1090, clk=0, reset=0, pout = 1110
time=                1095, clk=1, reset=0, pout = 1111
time=                1100, clk=0, reset=0, pout = 1111
time=                1105, clk=1, reset=0, pout = 0111
time=                1110, clk=0, reset=0, pout = 0111
time=                1115, clk=1, reset=0, pout = 0010
time=                1120, clk=0, reset=0, pout = 0010
time=                1125, clk=1, reset=0, pout = 0100
time=                1130, clk=0, reset=0, pout = 0100
time=                1135, clk=1, reset=0, pout = 1001
time=                1140, clk=0, reset=0, pout = 1001
time=                1145, clk=1, reset=0, pout = 1001
time=                1150, clk=0, reset=0, pout = 1001
time=                1155, clk=1, reset=0, pout = 0001
time=                1160, clk=0, reset=0, pout = 0001
time=                1165, clk=1, reset=0, pout = 1000
time=                1170, clk=0, reset=0, pout = 1000
time=                1175, clk=1, reset=0, pout = 0000
time=                1180, clk=0, reset=0, pout = 0000
time=                1185, clk=1, reset=0, pout = 0000
time=                1190, clk=0, reset=0, pout = 0000
time=                1195, clk=1, reset=0, pout = 0000
time=                1200, clk=0, reset=0, pout = 0000
time=                1205, clk=1, reset=0, pout = 0000
time=                1210, clk=0, reset=0, pout = 0000
time=                1215, clk=1, reset=0, pout = 0000
time=                1220, clk=0, reset=0, pout = 0000
time=                1225, clk=1, reset=0, pout = 1000
time=                1230, clk=0, reset=0, pout = 1000
time=                1235, clk=1, reset=0, pout = 1100
time=                1240, clk=0, reset=0, pout = 1100
time=                1245, clk=1, reset=0, pout = 0000
time=                1250, clk=0, reset=0, pout = 0000
time=                1255, clk=1, reset=0, pout = 1000
time=                1260, clk=0, reset=0, pout = 1000
time=                1265, clk=1, reset=0, pout = 1100
time=                1270, clk=0, reset=0, pout = 1100
time=                1275, clk=1, reset=0, pout = 0000
time=                1280, clk=0, reset=0, pout = 0000
time=                1285, clk=1, reset=0, pout = 0000
time=                1290, clk=0, reset=0, pout = 0000
time=                1295, clk=1, reset=0, pout = 1111
time=                1300, clk=0, reset=0, pout = 1111
time=                1305, clk=1, reset=0, pout = 1111
time=                1310, clk=0, reset=0, pout = 1111
time=                1315, clk=1, reset=0, pout = 1001
time=                1320, clk=0, reset=0, pout = 1001
time=                1325, clk=1, reset=0, pout = 0100
time=                1330, clk=0, reset=0, pout = 0100
time=                1335, clk=1, reset=0, pout = 1010
time=                1340, clk=0, reset=0, pout = 1010
time=                1345, clk=1, reset=0, pout = 1111
time=                1350, clk=0, reset=0, pout = 1111
time=                1355, clk=1, reset=0, pout = 0110
time=                1360, clk=0, reset=0, pout = 0110
time=                1365, clk=1, reset=0, pout = 0011
time=                1370, clk=0, reset=0, pout = 0011
time=                1375, clk=1, reset=0, pout = 1001
time=                1380, clk=0, reset=0, pout = 1001
time=                1385, clk=1, reset=0, pout = 0000
time=                1390, clk=0, reset=0, pout = 0000
time=                1395, clk=1, reset=0, pout = 0000
time=                1400, clk=0, reset=0, pout = 0000
time=                1405, clk=1, reset=0, pout = 0000
time=                1410, clk=0, reset=0, pout = 0000
time=                1415, clk=1, reset=0, pout = 0101
time=                1420, clk=0, reset=0, pout = 0101
time=                1425, clk=1, reset=0, pout = 0010
time=                1430, clk=0, reset=0, pout = 0010
time=                1435, clk=1, reset=0, pout = 0100
time=                1440, clk=0, reset=0, pout = 0100
time=                1445, clk=1, reset=0, pout = 1010
time=                1450, clk=0, reset=0, pout = 1010
time=                1455, clk=1, reset=0, pout = 0101
time=                1460, clk=0, reset=0, pout = 0101
time=                1465, clk=1, reset=0, pout = 1010
time=                1470, clk=0, reset=0, pout = 1010
time=                1475, clk=1, reset=0, pout = 0000
time=                1480, clk=0, reset=0, pout = 0000
time=                1485, clk=1, reset=0, pout = 0000
time=                1490, clk=0, reset=0, pout = 0000
time=                1495, clk=1, reset=0, pout = 0100
time=                1500, clk=0, reset=0, pout = 0100
time=                1505, clk=1, reset=0, pout = 0000
time=                1510, clk=0, reset=0, pout = 0000
time=                1515, clk=1, reset=0, pout = 0000
time=                1520, clk=0, reset=0, pout = 0000
time=                1525, clk=1, reset=0, pout = 0011
time=                1530, clk=0, reset=0, pout = 0011
time=                1535, clk=1, reset=0, pout = 0110
time=                1540, clk=0, reset=0, pout = 0110
time=                1545, clk=1, reset=0, pout = 0000
time=                1550, clk=0, reset=0, pout = 0000
time=                1555, clk=1, reset=0, pout = 0001
time=                1560, clk=0, reset=0, pout = 0001
time=                1565, clk=1, reset=0, pout = 1100
time=                1570, clk=0, reset=0, pout = 1100
time=                1575, clk=1, reset=0, pout = 0000
time=                1580, clk=0, reset=0, pout = 0000
time=                1585, clk=1, reset=0, pout = 0000
time=                1590, clk=0, reset=0, pout = 0000
time=                1595, clk=1, reset=0, pout = 0000
time=                1600, clk=0, reset=0, pout = 0000
time=                1605, clk=1, reset=0, pout = 0000
time=                1610, clk=0, reset=0, pout = 0000
time=                1615, clk=1, reset=0, pout = 0000
time=                1620, clk=0, reset=0, pout = 0000
time=                1625, clk=1, reset=0, pout = 0000
time=                1630, clk=0, reset=0, pout = 0000
time=                1635, clk=1, reset=0, pout = 1000
time=                1640, clk=0, reset=0, pout = 1000
time=                1645, clk=1, reset=0, pout = 1011
time=                1650, clk=0, reset=0, pout = 1011
time=                1655, clk=1, reset=0, pout = 0101
time=                1660, clk=0, reset=0, pout = 0101
time=                1665, clk=1, reset=0, pout = 1010
time=                1670, clk=0, reset=0, pout = 1010
time=                1675, clk=1, reset=0, pout = 0000
time=                1680, clk=0, reset=0, pout = 0000
time=                1685, clk=1, reset=0, pout = 0000
time=                1690, clk=0, reset=0, pout = 0000
time=                1695, clk=1, reset=0, pout = 0000
time=                1700, clk=0, reset=0, pout = 0000
time=                1705, clk=1, reset=0, pout = 1111
time=                1710, clk=0, reset=0, pout = 1111
time=                1715, clk=1, reset=0, pout = 1111
time=                1720, clk=0, reset=0, pout = 1111
time=                1725, clk=1, reset=0, pout = 0000
time=                1730, clk=0, reset=0, pout = 0000
time=                1735, clk=1, reset=0, pout = 1000
time=                1740, clk=0, reset=0, pout = 1000
time=                1745, clk=1, reset=0, pout = 0000
time=                1750, clk=0, reset=0, pout = 0000
time=                1755, clk=1, reset=0, pout = 1110
time=                1760, clk=0, reset=0, pout = 1110
time=                1765, clk=1, reset=0, pout = 1100
time=                1770, clk=0, reset=0, pout = 1100
time=                1775, clk=1, reset=0, pout = 0000
time=                1780, clk=0, reset=0, pout = 0000
time=                1785, clk=1, reset=0, pout = 0000
time=                1790, clk=0, reset=0, pout = 0000
time=                1795, clk=1, reset=0, pout = 1111
time=                1800, clk=0, reset=0, pout = 1111
time=                1805, clk=1, reset=0, pout = 0000
time=                1810, clk=0, reset=0, pout = 0000
time=                1815, clk=1, reset=0, pout = 0100
time=                1820, clk=0, reset=0, pout = 0100
time=                1825, clk=1, reset=0, pout = 1001
time=                1830, clk=0, reset=0, pout = 1001
time=                1835, clk=1, reset=0, pout = 0010
time=                1840, clk=0, reset=0, pout = 0010
time=                1845, clk=1, reset=0, pout = 0101
time=                1850, clk=0, reset=0, pout = 0101
time=                1855, clk=1, reset=0, pout = 0000
time=                1860, clk=0, reset=0, pout = 0000
time=                1865, clk=1, reset=0, pout = 0001
time=                1870, clk=0, reset=0, pout = 0001
time=                1875, clk=1, reset=0, pout = 1000
time=                1880, clk=0, reset=0, pout = 1000
time=                1885, clk=1, reset=0, pout = 0001
time=                1890, clk=0, reset=0, pout = 0001
time=                1895, clk=1, reset=0, pout = 0000
time=                1900, clk=0, reset=0, pout = 0000
time=                1905, clk=1, reset=0, pout = 0000
time=                1910, clk=0, reset=0, pout = 0000
time=                1915, clk=1, reset=0, pout = 1100
time=                1920, clk=0, reset=0, pout = 1100
time=                1925, clk=1, reset=0, pout = 1110
time=                1930, clk=0, reset=0, pout = 1110
time=                1935, clk=1, reset=0, pout = 1100
time=                1940, clk=0, reset=0, pout = 1100
time=                1945, clk=1, reset=0, pout = 1000
time=                1950, clk=0, reset=0, pout = 1000
time=                1955, clk=1, reset=0, pout = 0100
time=                1960, clk=0, reset=0, pout = 0100
time=                1965, clk=1, reset=0, pout = 1000
time=                1970, clk=0, reset=0, pout = 1000
time=                1975, clk=1, reset=0, pout = 0000
time=                1980, clk=0, reset=0, pout = 0000
time=                1985, clk=1, reset=0, pout = 0000
time=                1990, clk=0, reset=0, pout = 0000
time=                1995, clk=1, reset=0, pout = 0000
time=                2000, clk=0, reset=0, pout = 0000
time=                2005, clk=1, reset=0, pout = 1000
time=                2010, clk=0, reset=0, pout = 1000
time=                2015, clk=1, reset=0, pout = 1011
time=                2020, clk=0, reset=0, pout = 1011
time=                2025, clk=1, reset=0, pout = 0110
time=                2030, clk=0, reset=0, pout = 0110
time=                2035, clk=1, reset=0, pout = 1011
time=                2040, clk=0, reset=0, pout = 1011
time=                2045, clk=1, reset=0, pout = 0011
time=                2050, clk=0, reset=0, pout = 0011
time=                2055, clk=1, reset=0, pout = 0001
time=                2060, clk=0, reset=0, pout = 0001
time=                2065, clk=1, reset=0, pout = 0010
time=                2070, clk=0, reset=0, pout = 0010
time=                2075, clk=1, reset=0, pout = 1001
time=                2080, clk=0, reset=0, pout = 1001
time=                2085, clk=1, reset=0, pout = 1100
time=                2090, clk=0, reset=0, pout = 1100
time=                2095, clk=1, reset=0, pout = 0110
time=                2100, clk=0, reset=0, pout = 0110
time=                2105, clk=1, reset=0, pout = 0000
time=                2110, clk=0, reset=0, pout = 0000
time=                2115, clk=1, reset=0, pout = 0000
time=                2120, clk=0, reset=0, pout = 0000
time=                2125, clk=1, reset=0, pout = 0000
time=                2130, clk=0, reset=0, pout = 0000
time=                2135, clk=1, reset=0, pout = 0000
time=                2140, clk=0, reset=0, pout = 0000
time=                2145, clk=1, reset=0, pout = 1000
time=                2150, clk=0, reset=0, pout = 1000
time=                2155, clk=1, reset=0, pout = 0100
time=                2160, clk=0, reset=0, pout = 0100
time=                2165, clk=1, reset=0, pout = 0000
time=                2170, clk=0, reset=0, pout = 0000
time=                2175, clk=1, reset=0, pout = 0000
time=                2180, clk=0, reset=0, pout = 0000
time=                2185, clk=1, reset=0, pout = 0011
time=                2190, clk=0, reset=0, pout = 0011
time=                2195, clk=1, reset=0, pout = 0111
time=                2200, clk=0, reset=0, pout = 0111
time=                2205, clk=1, reset=0, pout = 1111
time=                2210, clk=0, reset=0, pout = 1111
time=                2215, clk=1, reset=0, pout = 0000
time=                2220, clk=0, reset=0, pout = 0000
time=                2225, clk=1, reset=0, pout = 0001
time=                2230, clk=0, reset=0, pout = 0001
time=                2235, clk=1, reset=0, pout = 0000
time=                2240, clk=0, reset=0, pout = 0000
time=                2245, clk=1, reset=0, pout = 0000
time=                2250, clk=0, reset=0, pout = 0000
time=                2255, clk=1, reset=0, pout = 0000
time=                2260, clk=0, reset=0, pout = 0000
time=                2265, clk=1, reset=0, pout = 0000
time=                2270, clk=0, reset=0, pout = 0000
time=                2275, clk=1, reset=0, pout = 0001
time=                2280, clk=0, reset=0, pout = 0001
time=                2285, clk=1, reset=0, pout = 0101
time=                2290, clk=0, reset=0, pout = 0101
time=                2295, clk=1, reset=0, pout = 0000
time=                2300, clk=0, reset=0, pout = 0000
time=                2305, clk=1, reset=0, pout = 1000
time=                2310, clk=0, reset=0, pout = 1000
time=                2315, clk=1, reset=0, pout = 1000
time=                2320, clk=0, reset=0, pout = 1000
time=                2325, clk=1, reset=0, pout = 0001
time=                2330, clk=0, reset=0, pout = 0001
time=                2335, clk=1, reset=0, pout = 0000
time=                2340, clk=0, reset=0, pout = 0000
time=                2345, clk=1, reset=0, pout = 0000
time=                2350, clk=0, reset=0, pout = 0000
time=                2355, clk=1, reset=0, pout = 1110
time=                2360, clk=0, reset=0, pout = 1110
time=                2365, clk=1, reset=0, pout = 0000
time=                2370, clk=0, reset=0, pout = 0000
time=                2375, clk=1, reset=0, pout = 1000
time=                2380, clk=0, reset=0, pout = 1000
time=                2385, clk=1, reset=0, pout = 0000
time=                2390, clk=0, reset=0, pout = 0000
time=                2395, clk=1, reset=0, pout = 0000
time=                2400, clk=0, reset=0, pout = 0000
time=                2405, clk=1, reset=0, pout = 0001
time=                2410, clk=0, reset=0, pout = 0001
time=                2415, clk=1, reset=0, pout = 0000
time=                2420, clk=0, reset=0, pout = 0000
time=                2425, clk=1, reset=0, pout = 0001
time=                2430, clk=0, reset=0, pout = 0001
time=                2435, clk=1, reset=0, pout = 1011
time=                2440, clk=0, reset=0, pout = 1011
time=                2445, clk=1, reset=0, pout = 0101
time=                2450, clk=0, reset=0, pout = 0101
time=                2455, clk=1, reset=0, pout = 0000
time=                2460, clk=0, reset=0, pout = 0000
time=                2465, clk=1, reset=0, pout = 0000
time=                2470, clk=0, reset=0, pout = 0000
time=                2475, clk=1, reset=0, pout = 1100
time=                2480, clk=0, reset=0, pout = 1100
time=                2485, clk=1, reset=0, pout = 0100
time=                2490, clk=0, reset=0, pout = 0100
time=                2495, clk=1, reset=0, pout = 1010
time=                2500, clk=0, reset=0, pout = 1010
time=                2505, clk=1, reset=0, pout = 1101
time=                2510, clk=0, reset=0, pout = 1101
time=                2515, clk=1, reset=0, pout = 0110
time=                2520, clk=0, reset=0, pout = 0110
time=                2525, clk=1, reset=0, pout = 0000
time=                2530, clk=0, reset=0, pout = 0000
time=                2535, clk=1, reset=0, pout = 0000
time=                2540, clk=0, reset=0, pout = 0000
time=                2545, clk=1, reset=0, pout = 1101
time=                2550, clk=0, reset=0, pout = 1101
time=                2555, clk=1, reset=0, pout = 1111
time=                2560, clk=0, reset=0, pout = 1111
time=                2565, clk=1, reset=0, pout = 0111
time=                2570, clk=0, reset=0, pout = 0111
time=                2575, clk=1, reset=0, pout = 0011
time=                2580, clk=0, reset=0, pout = 0011
time=                2585, clk=1, reset=0, pout = 0001
time=                2590, clk=0, reset=0, pout = 0001
time=                2595, clk=1, reset=0, pout = 0000
time=                2600, clk=0, reset=0, pout = 0000
time=                2605, clk=1, reset=0, pout = 0000
time=                2610, clk=0, reset=0, pout = 0000
time=                2615, clk=1, reset=0, pout = 1000
time=                2620, clk=0, reset=0, pout = 1000
time=                2625, clk=1, reset=0, pout = 1001
time=                2630, clk=0, reset=0, pout = 1001
time=                2635, clk=1, reset=0, pout = 1100
time=                2640, clk=0, reset=0, pout = 1100
time=                2645, clk=1, reset=0, pout = 1001
time=                2650, clk=0, reset=0, pout = 1001
time=                2655, clk=1, reset=0, pout = 1100
time=                2660, clk=0, reset=0, pout = 1100
time=                2665, clk=1, reset=0, pout = 1001
time=                2670, clk=0, reset=0, pout = 1001
time=                2675, clk=1, reset=0, pout = 1010
time=                2680, clk=0, reset=0, pout = 1010
time=                2685, clk=1, reset=0, pout = 1101
time=                2690, clk=0, reset=0, pout = 1101
time=                2695, clk=1, reset=0, pout = 0000
time=                2700, clk=0, reset=0, pout = 0000
time=                2705, clk=1, reset=0, pout = 0000
time=                2710, clk=0, reset=0, pout = 0000
time=                2715, clk=1, reset=0, pout = 0000
time=                2720, clk=0, reset=0, pout = 0000
time=                2725, clk=1, reset=0, pout = 0000
time=                2730, clk=0, reset=0, pout = 0000
time=                2735, clk=1, reset=0, pout = 0000
time=                2740, clk=0, reset=0, pout = 0000
time=                2745, clk=1, reset=0, pout = 1000
time=                2750, clk=0, reset=0, pout = 1000
time=                2755, clk=1, reset=0, pout = 0000
time=                2760, clk=0, reset=0, pout = 0000
time=                2765, clk=1, reset=0, pout = 0000
time=                2770, clk=0, reset=0, pout = 0000
time=                2775, clk=1, reset=0, pout = 0000
time=                2780, clk=0, reset=0, pout = 0000
time=                2785, clk=1, reset=0, pout = 0000
time=                2790, clk=0, reset=0, pout = 0000
time=                2795, clk=1, reset=0, pout = 0000
time=                2800, clk=0, reset=0, pout = 0000
time=                2805, clk=1, reset=0, pout = 0101
time=                2810, clk=0, reset=0, pout = 0101
time=                2815, clk=1, reset=0, pout = 0000
time=                2820, clk=0, reset=0, pout = 0000
time=                2825, clk=1, reset=0, pout = 0100
time=                2830, clk=0, reset=0, pout = 0100
time=                2835, clk=1, reset=0, pout = 0000
time=                2840, clk=0, reset=0, pout = 0000
time=                2845, clk=1, reset=0, pout = 0010
time=                2850, clk=0, reset=0, pout = 0010
time=                2855, clk=1, reset=0, pout = 0001
time=                2860, clk=0, reset=0, pout = 0001
time=                2865, clk=1, reset=0, pout = 1000
time=                2870, clk=0, reset=0, pout = 1000
time=                2875, clk=1, reset=0, pout = 0001
time=                2880, clk=0, reset=0, pout = 0001
time=                2885, clk=1, reset=0, pout = 0000
time=                2890, clk=0, reset=0, pout = 0000
time=                2895, clk=1, reset=0, pout = 0000
time=                2900, clk=0, reset=0, pout = 0000
time=                2905, clk=1, reset=0, pout = 0000
time=                2910, clk=0, reset=0, pout = 0000
time=                2915, clk=1, reset=0, pout = 0101
time=                2920, clk=0, reset=0, pout = 0101
time=                2925, clk=1, reset=0, pout = 1010
time=                2930, clk=0, reset=0, pout = 1010
time=                2935, clk=1, reset=0, pout = 0000
time=                2940, clk=0, reset=0, pout = 0000
time=                2945, clk=1, reset=0, pout = 0000
time=                2950, clk=0, reset=0, pout = 0000
time=                2955, clk=1, reset=0, pout = 0011
time=                2960, clk=0, reset=0, pout = 0011
time=                2965, clk=1, reset=0, pout = 0000
time=                2970, clk=0, reset=0, pout = 0000
time=                2975, clk=1, reset=0, pout = 0110
time=                2980, clk=0, reset=0, pout = 0110
time=                2985, clk=1, reset=0, pout = 1011
time=                2990, clk=0, reset=0, pout = 1011
time=                2995, clk=1, reset=0, pout = 1101
time=                3000, clk=0, reset=0, pout = 1101
time=                3005, clk=1, reset=0, pout = 0110
