lab1/fsm/fsm123.vcd
$date
    Jun 20, 2023  16:17:16
$end
$version
    TOOL:	xmsim	21.03-s001
$end
$timescale
    1 ns
$end

$scope module top $end
$var reg       1 !    clk $end

$scope module i1 $end
$var wire      1 "    clk  $end
$var reg       1 #    reset $end
$var reg       1 $    x $end
$var reg       1 %    d $end
$var reg       1 &    z $end

$scope clocking cb $end
$var reg       1 '    z $end
$var reg       1 (    d $end
$var reg       1 )    x $end
$upscope $end

$upscope $end


$scope module DUT $end
$var wire      1 *    x  $end
$var wire      1 "    clk  $end
$var wire      1 +    reset  $end
$var reg       1 ,    z $end
$var reg       1 -    d $end
$var reg       3 .    cst [2:0] $end
$var reg       3 /    nst [2:0] $end
$var parameter  3 0    S0 $end
$var parameter  3 1    W0 $end
$var parameter  3 2    W1 $end
$var parameter  3 3    W2 $end
$var parameter  3 4    OT $end
$var parameter  3 5    DE $end
$upscope $end

$upscope $end

$enddefinitions $end
$dumpvars
b101 5
b100 4
b11 3
b10 2
b1 1
b0 0
0!
0"
0#
x$
x%
x&
x'
x(
x)
x*
0+
x,
x-
bx .
bx /
$end
#5
1!
1"
#8
0$
0)
0*
#10
0!
0"
1#
1+
#15
1!
1"
b0 .
b0 /
0,
0-
0%
0&
#18
1$
1)
1*
b1 /
#20
0!
0"
0#
0+
#25
1!
1"
0'
0(
b1 .
b10 /
#30
0!
0"
#35
1!
1"
b10 .
b11 /
#40
0!
0"
#45
1!
1"
b11 .
b100 /
1,
1&
#50
0!
0"
#55
1!
1"
1'
b100 .
b101 /
0,
1-
1%
0&
#60
0!
0"
#65
1!
1"
0'
1(
b101 .
b0 /
0-
0%
#70
0!
0"
#75
1!
1"
0(
b0 .
b1 /
#78
0$
0)
0*
b0 /
#80
0!
0"
#85
1!
1"
#88
1$
1)
1*
b1 /
#90
0!
0"
#95
1!
1"
b1 .
b10 /
#100
0!
0"
#105
1!
1"
b10 .
b11 /
#108
0$
0)
0*
#110
0!
0"
#115
1!
1"
b11 .
b100 /
1,
1&
#118
1$
1)
1*
#120
0!
0"
#125
1!
1"
1'
b100 .
b101 /
0,
1-
1%
0&
#130
0!
0"
#135
1!
1"
0'
1(
b101 .
b0 /
0-
0%
#138
0$
0)
0*
#140
0!
0"
#145
1!
1"
0(
b0 .
#148
1$
1)
1*
b1 /
#150
0!
0"
#155
1!
1"
b1 .
b10 /
#158
0$
0)
0*
#160
0!
0"
#165
1!
1"
b10 .
b11 /
#168
1$
1)
1*
#170
0!
0"
#175
1!
1"
b11 .
b100 /
1,
1&
#178
0$
0)
0*
#180
0!
0"
#185
1!
1"
1'
b100 .
b101 /
0,
1-
1%
0&
#188
1$
1)
1*
#190
0!
0"
#195
1!
1"
0'
1(
b101 .
b0 /
0-
0%
#200
0!
0"
#205
1!
1"
0(
b0 .
b1 /
#208
0$
0)
0*
b0 /
#210
0!
0"
#215
1!
1"
#218
1$
1)
1*
b1 /
#220
0!
0"
#225
1!
1"
b1 .
b10 /
#228
0$
0)
0*
#230
0!
0"
#235
1!
1"
b10 .
b11 /
#240
0!
0"
#245
1!
1"
b11 .
b100 /
1,
1&
#250
0!
0"
#255
1!
1"
1'
b100 .
b101 /
0,
1-
1%
0&
#258
1$
1)
1*
#260
0!
0"
#265
1!
1"
0'
1(
b101 .
b0 /
0-
0%
#268
0$
0)
0*
#270
0!
0"
#275
1!
1"
0(
b0 .
#278
1$
1)
1*
b1 /
#280
0!
0"
#285
1!
1"
b1 .
b10 /
#290
0!
0"
#295
1!
1"
b10 .
b11 /
#300
0!
0"
#305
1!
1"
b11 .
b100 /
1,
1&
#310
0!
0"
#315
1!
1"
1'
b100 .
b101 /
0,
1-
1%
0&
#318
0$
0)
0*
#320
0!
0"
#325
1!
1"
0'
1(
b101 .
b0 /
0-
0%
#330
0!
0"
#335
1!
1"
0(
b0 .
#340
0!
0"
#345
1!
1"
#350
0!
0"
#355
1!
1"
#358
1$
1)
1*
b1 /
#360
0!
0"
#365
1!
1"
b1 .
b10 /
#368
0$
0)
0*
#370
0!
0"
#375
1!
1"
b10 .
b11 /
#378
1$
1)
1*
#380
0!
0"
#385
1!
1"
b11 .
b100 /
1,
1&
#390
0!
0"
#395
1!
1"
1'
b100 .
b101 /
0,
1-
1%
0&
#400
0!
0"
#405
1!
1"
0'
1(
b101 .
b0 /
0-
0%
#410
0!
0"
#415
1!
1"
0(
b0 .
b1 /
#420
0!
0"
#425
1!
1"
b1 .
b10 /
#428
0$
0)
0*
#430
0!
0"
#435
1!
1"
b10 .
b11 /
#440
0!
0"
#445
1!
1"
b11 .
b100 /
1,
1&
#448
1$
1)
1*
#450
0!
0"
#455
1!
1"
1'
b100 .
b101 /
0,
1-
1%
0&
#460
0!
0"
#465
1!
1"
0'
1(
b101 .
b0 /
0-
0%
#470
0!
0"
#475
1!
1"
0(
b0 .
b1 /
#478
0$
0)
0*
b0 /
#480
0!
0"
#485
1!
1"
#490
0!
0"
#495
1!
1"
#500
0!
0"
#505
1!
1"
#510
0!
0"
#515
1!
1"
#520
0!
0"
#525
1!
1"
#528
1$
1)
1*
b1 /
#530
0!
0"
#535
1!
1"
b1 .
b10 /
#538
0$
0)
0*
#540
0!
0"
#545
1!
1"
b10 .
b11 /
#550
0!
0"
#555
1!
1"
b11 .
b100 /
1,
1&
#558
1$
1)
1*
#560
0!
0"
#565
1!
1"
1'
b100 .
b101 /
0,
1-
1%
0&
#570
0!
0"
#575
1!
1"
0'
1(
b101 .
b0 /
0-
0%
#578
0$
0)
0*
#580
0!
0"
#585
1!
1"
0(
b0 .
#590
0!
0"
#595
1!
1"
#600
0!
0"
#605
1!
1"
#610
0!
0"
#615
1!
1"
#620
0!
0"
#625
1!
1"
#628
1$
1)
1*
b1 /
#630
0!
0"
#635
1!
1"
b1 .
b10 /
#640
0!
0"
#645
1!
1"
b10 .
b11 /
#650
0!
0"
#655
1!
1"
b11 .
b100 /
1,
1&
#660
0!
0"
#665
1!
1"
1'
b100 .
b101 /
0,
1-
1%
0&
#670
0!
0"
#675
1!
1"
0'
1(
b101 .
b0 /
0-
0%
#678
0$
0)
0*
#680
0!
0"
#685
1!
1"
0(
b0 .
#690
0!
0"
#695
1!
1"
#698
1$
1)
1*
b1 /
#700
0!
0"
#705
1!
1"
b1 .
b10 /
#710
0!
0"
#715
1!
1"
b10 .
b11 /
#720
0!
0"
#725
1!
1"
b11 .
b100 /
1,
1&
#728
0$
0)
0*
#730
0!
0"
#735
1!
1"
1'
b100 .
b101 /
0,
1-
1%
0&
#740
0!
0"
#745
1!
1"
0'
1(
b101 .
b0 /
0-
0%
#748
1$
1)
1*
#750
0!
0"
#755
1!
1"
0(
b0 .
b1 /
#760
0!
0"
#765
1!
1"
b1 .
b10 /
#768
0$
0)
0*
#770
0!
0"
#775
1!
1"
b10 .
b11 /
#778
1$
1)
1*
#780
0!
0"
#785
1!
1"
b11 .
b100 /
1,
1&
#790
0!
0"
#795
1!
1"
1'
b100 .
b101 /
0,
1-
1%
0&
#798
0$
0)
0*
#800
0!
0"
#805
1!
1"
0'
1(
b101 .
b0 /
0-
0%
#808
1$
1)
1*
#810
0!
0"
#815
1!
1"
0(
b0 .
b1 /
#820
0!
0"
#825
1!
1"
b1 .
b10 /
#830
0!
0"
#835
1!
1"
b10 .
b11 /
#838
0$
0)
0*
#840
0!
0"
#845
1!
1"
b11 .
b100 /
1,
1&
#848
1$
1)
1*
#850
0!
0"
#855
1!
1"
1'
b100 .
b101 /
0,
1-
1%
0&
#860
0!
0"
#865
1!
1"
0'
1(
b101 .
b0 /
0-
0%
#868
0$
0)
0*
#870
0!
0"
#875
1!
1"
0(
b0 .
#880
0!
0"
#885
1!
1"
#890
0!
0"
#895
1!
1"
#900
0!
0"
#905
1!
1"
#908
1$
1)
1*
b1 /
#910
0!
0"
#915
1!
1"
b1 .
b10 /
#920
0!
0"
#925
1!
1"
b10 .
b11 /
#928
0$
0)
0*
#930
0!
0"
#935
1!
1"
b11 .
b100 /
1,
1&
#940
0!
0"
#945
1!
1"
1'
b100 .
b101 /
0,
1-
1%
0&
#948
1$
1)
1*
#950
0!
0"
#955
1!
1"
0'
1(
b101 .
b0 /
0-
0%
#960
0!
0"
#965
1!
1"
0(
b0 .
b1 /
#970
0!
0"
#975
1!
1"
b1 .
b10 /
#980
0!
0"
#985
1!
1"
b10 .
b11 /
#990
0!
0"
#995
1!
1"
b11 .
b100 /
1,
1&
#998
0$
0)
0*
