lab1/USR/usr_oops/top.vcd
$date
    May 22, 2023  10:25:07
$end
$version
    TOOL:	xmsim	21.03-s001
$end
$timescale
    1 ns
$end

$scope module top $end
$var reg       1 !    clk $end

$scope module i1 $end
$var wire      1 "    clk  $end
$var reg       1 #    rst $end
$var reg       4 $    pout [3:0] $end
$var reg       4 %    pin [3:0] $end
$var reg       1 &    s0 $end
$var reg       1 '    s1 $end
$var reg       1 (    sin $end
$var reg       1 )    sout $end

$scope clocking cb $end
$var reg       4 *    pout [3:0] $end
$var reg       1 +    sout $end
$var reg       1 ,    s0 $end
$var reg       1 -    s1 $end
$var reg       1 .    sin $end
$var reg       4 /    pin [3:0] $end
$upscope $end

$upscope $end


$scope module dut $end
$var wire      1 0    s0  $end
$var wire      1 1    s1  $end
$var wire      1 2    sin  $end
$var wire      1 3    rst  $end
$var wire      1 "    clk  $end
$var wire      4 4    pin [3:0] $end
$var reg       1 5    sout $end
$var reg       4 6    pout [3:0] $end
$upscope $end

$upscope $end

$enddefinitions $end
$dumpvars
0!
0"
0#
bx $
bx %
x&
x'
x(
x)
bx *
x+
x,
x-
x.
bx /
x0
x1
x2
03
bx 4
x5
bx 6
$end
#5
1!
1"
b0 6
05
0)
b0 $
#8
0&
0,
1'
1-
1(
1.
b11 %
b11 /
b11 4
12
11
00
#10
0!
0"
#15
1!
1"
b1000 6
b0 *
0+
b1000 $
1#
13
b0 6
b0 $
#18
1&
1,
b10 %
b10 /
b10 4
10
#20
0!
0"
#25
1!
1"
0#
03
#28
0(
0.
b1101 %
b1101 /
b1101 4
02
#30
0!
0"
#35
1!
1"
b1101 6
b1101 $
#38
0'
0-
1(
1.
b110 %
b110 /
b110 4
12
01
#40
0!
0"
#45
1!
1"
b1010 6
b1011 6
15
b1101 *
1)
b1011 $
#48
b111 %
b111 /
b111 4
#50
0!
0"
#55
1!
1"
b110 6
b111 6
05
b1011 *
1+
0)
b111 $
#58
0&
0,
1'
1-
0(
0.
b1110 %
b1110 /
b1110 4
02
11
00
#60
0!
0"
#65
1!
1"
b11 6
15
b111 *
0+
1)
b11 $
#68
b1101 %
b1101 /
b1101 4
#70
0!
0"
#75
1!
1"
b1 6
b11 *
1+
b1 $
#78
1&
1,
1(
1.
b1010 %
b1010 /
b1010 4
12
10
#80
0!
0"
#85
1!
1"
b1 *
b1010 6
05
0)
b1010 $
#88
0&
0,
0'
0-
0(
0.
b1101 %
b1101 /
b1101 4
02
01
00
#90
0!
0"
#95
1!
1"
b1010 *
0+
b0 6
15
1)
b0 $
#98
1'
1-
1(
1.
b11 %
b11 /
b11 4
12
11
#100
0!
0"
#105
1!
1"
b1000 6
05
b0 *
1+
0)
b1000 $
#108
1&
1,
0(
0.
b1110 %
b1110 /
b1110 4
02
10
#110
0!
0"
#115
1!
1"
b1000 *
0+
b1110 6
15
1)
b1110 $
#118
1(
1.
b1010 %
b1010 /
b1010 4
12
#120
0!
0"
#125
1!
1"
b1110 *
1+
b1010 6
b1010 $
#128
0&
0,
0'
0-
0(
0.
02
01
00
#130
0!
0"
#135
1!
1"
b1010 *
b0 6
b0 $
#138
1&
1,
b1001 %
b1001 /
b1001 4
10
#140
0!
0"
#145
1!
1"
05
b0 *
0)
#148
b1110 %
b1110 /
b1110 4
#150
0!
0"
#155
1!
1"
0+
#158
0&
0,
1(
1.
b1 %
b1 /
b1 4
12
00
#160
0!
0"
#165
1!
1"
#168
1&
1,
1'
1-
b1010 %
b1010 /
b1010 4
11
10
#170
0!
0"
#175
1!
1"
b1010 6
b1010 $
#178
0&
0,
b1001 %
b1001 /
b1001 4
00
#180
0!
0"
#185
1!
1"
b101 6
b1101 6
15
b1010 *
1)
b1101 $
#188
0'
0-
b1111 %
b1111 /
b1111 4
01
#190
0!
0"
#195
1!
1"
b1101 *
1+
b0 6
b0 $
#198
1'
1-
b1100 %
b1100 /
b1100 4
11
#200
0!
0"
#205
1!
1"
b1000 6
05
b0 *
0)
b1000 $
#208
1&
1,
b0 %
b0 /
b0 4
10
#210
0!
0"
#215
1!
1"
b1000 *
0+
b0 6
15
1)
b0 $
#218
0(
0.
b1100 %
b1100 /
b1100 4
02
#220
0!
0"
#225
1!
1"
b0 *
1+
b1100 6
05
0)
b1100 $
#228
0&
0,
0'
0-
1(
1.
b1101 %
b1101 /
b1101 4
12
01
00
#230
0!
0"
#235
1!
1"
b1100 *
0+
b0 6
15
1)
b0 $
#238
b1001 %
b1001 /
b1001 4
#240
0!
0"
#245
1!
1"
b0 *
1+
05
0)
#248
1&
1,
1'
1-
b1000 %
b1000 /
b1000 4
11
10
#250
0!
0"
#255
1!
1"
0+
b1000 6
b1000 $
#258
b1010 %
b1010 /
b1010 4
#260
0!
0"
#265
1!
1"
b1000 *
b1010 6
15
1)
b1010 $
#268
0&
0,
0'
0-
0(
0.
b1100 %
b1100 /
b1100 4
02
01
00
#270
0!
0"
#275
1!
1"
b1010 *
1+
b0 6
b0 $
#278
1(
1.
b11 %
b11 /
b11 4
12
#280
0!
0"
#285
1!
1"
b0 *
05
0)
#288
1&
1,
1'
1-
b100 %
b100 /
b100 4
11
10
#290
0!
0"
#295
1!
1"
0+
b100 6
b100 $
#298
0(
0.
b1010 %
b1010 /
b1010 4
02
#300
0!
0"
#305
1!
1"
b100 *
b1010 6
b1010 $
#308
b101 %
b101 /
b101 4
#310
0!
0"
#315
1!
1"
b1010 *
b101 6
15
1)
b101 $
#318
1(
1.
b100 %
b100 /
b100 4
12
#320
0!
0"
#325
1!
1"
b101 *
1+
b100 6
05
0)
b100 $
#328
0&
0,
0'
0-
b1110 %
b1110 /
b1110 4
01
00
#330
0!
0"
#335
1!
1"
b100 *
0+
b0 6
b0 $
#338
b11 %
b11 /
b11 4
#340
0!
0"
#345
1!
1"
b0 *
#348
b1010 %
b1010 /
b1010 4
#350
0!
0"
#355
1!
1"
#358
b1000 %
b1000 /
b1000 4
#360
0!
0"
#365
1!
1"
#368
1'
1-
0(
0.
b1001 %
b1001 /
b1001 4
02
11
#370
0!
0"
#375
1!
1"
#378
1&
1,
1(
1.
b1101 %
b1101 /
b1101 4
12
10
#380
0!
0"
#385
1!
1"
b1101 6
b1101 $
#388
0&
0,
0'
0-
0(
0.
b101 %
b101 /
b101 4
02
01
00
#390
0!
0"
#395
1!
1"
b1101 *
b0 6
15
1)
b0 $
#398
1(
1.
b1001 %
b1001 /
b1001 4
12
#400
0!
0"
#405
1!
1"
b0 *
1+
05
0)
#408
0(
0.
b1101 %
b1101 /
b1101 4
02
#410
0!
0"
#415
1!
1"
0+
#418
1&
1,
b1100 %
b1100 /
b1100 4
10
#420
0!
0"
#425
1!
1"
#428
1'
1-
b110 %
b110 /
b110 4
11
#430
0!
0"
#435
1!
1"
b110 6
b110 $
#438
0&
0,
b0 %
b0 /
b0 4
00
#440
0!
0"
#445
1!
1"
b11 6
15
b110 *
1)
b11 $
#448
1&
1,
0'
0-
b1010 %
b1010 /
b1010 4
01
10
#450
0!
0"
#455
1!
1"
b110 6
05
b11 *
1+
0)
b110 $
#458
1(
1.
b111 %
b111 /
b111 4
12
#460
0!
0"
#465
1!
1"
b1100 6
b1101 6
15
b110 *
0+
1)
b1101 $
#468
0&
0,
0(
0.
b110 %
b110 /
b110 4
02
00
#470
0!
0"
#475
1!
1"
b1101 *
1+
b0 6
b0 $
#478
1&
1,
b1000 %
b1000 /
b1000 4
10
#480
0!
0"
#485
1!
1"
05
b0 *
0)
#488
0&
0,
1'
1-
1(
1.
b1001 %
b1001 /
b1001 4
12
11
00
#490
0!
0"
#495
1!
1"
b1000 6
0+
b1000 $
#498
b1 %
b1 /
b1 4
#500
0!
0"
#505
1!
1"
b100 6
b1100 6
b1000 *
b1100 $
#508
0'
0-
b101 %
b101 /
b101 4
01
#510
0!
0"
#515
1!
1"
b1100 *
b0 6
15
1)
b0 $
#518
1&
1,
1'
1-
b1000 %
b1000 /
b1000 4
11
10
#520
0!
0"
#525
1!
1"
b0 *
1+
b1000 6
05
0)
b1000 $
#528
0(
0.
b1010 %
b1010 /
b1010 4
02
#530
0!
0"
#535
1!
1"
b1000 *
0+
b1010 6
15
1)
b1010 $
#538
0&
0,
0'
0-
1(
1.
b1 %
b1 /
b1 4
12
01
00
#540
0!
0"
#545
1!
1"
b1010 *
1+
b0 6
b0 $
#548
b1010 %
b1010 /
b1010 4
#550
0!
0"
#555
1!
1"
b0 *
05
0)
#558
1'
1-
0(
0.
b1000 %
b1000 /
b1000 4
02
11
#560
0!
0"
#565
1!
1"
0+
#568
1&
1,
0'
0-
b11 %
b11 /
b11 4
01
10
#570
0!
0"
#575
1!
1"
#578
1'
1-
b1010 %
b1010 /
b1010 4
11
#580
0!
0"
#585
1!
1"
b1010 6
b1010 $
#588
0&
0,
b100 %
b100 /
b100 4
00
#590
0!
0"
#595
1!
1"
b101 6
15
b1010 *
1)
b101 $
#598
1&
1,
0'
0-
b10 %
b10 /
b10 4
01
10
#600
0!
0"
#605
1!
1"
b1010 6
b101 *
1+
b1010 $
#608
0&
0,
1'
1-
b100 %
b100 /
b100 4
11
00
#610
0!
0"
#615
1!
1"
b101 6
b1010 *
b101 $
#618
1(
1.
b1110 %
b1110 /
b1110 4
12
#620
0!
0"
#625
1!
1"
b10 6
b1010 6
05
b101 *
0)
b1010 $
#628
1&
1,
b1001 %
b1001 /
b1001 4
10
#630
0!
0"
#635
1!
1"
b1010 *
0+
b1001 6
15
1)
b1001 $
#638
0&
0,
b1011 %
b1011 /
b1011 4
00
#640
0!
0"
#645
1!
1"
b100 6
b1100 6
05
b1001 *
1+
0)
b1100 $
#648
0'
0-
b10 %
b10 /
b10 4
01
#650
0!
0"
#655
1!
1"
b1100 *
0+
b0 6
15
1)
b0 $
#658
1'
1-
11
#660
0!
0"
#665
1!
1"
b1000 6
05
b0 *
1+
0)
b1000 $
#668
0(
0.
b1000 %
b1000 /
b1000 4
02
#670
0!
0"
#675
1!
1"
b100 6
b1000 *
0+
b100 $
#678
1&
1,
0'
0-
1(
1.
b1011 %
b1011 /
b1011 4
12
01
10
#680
0!
0"
#685
1!
1"
b1000 6
b1001 6
15
b100 *
1)
b1001 $
#688
0&
0,
1'
1-
0(
0.
02
11
00
#690
0!
0"
#695
1!
1"
b100 6
05
b1001 *
1+
0)
b100 $
#698
0'
0-
1(
1.
b1000 %
b1000 /
b1000 4
12
01
#700
0!
0"
#705
1!
1"
b100 *
0+
b0 6
b0 $
#708
b101 %
b101 /
b101 4
#710
0!
0"
#715
1!
1"
b0 *
#718
1&
1,
1'
1-
b1000 %
b1000 /
b1000 4
11
10
#720
0!
0"
#725
1!
1"
b1000 6
b1000 $
#728
b100 %
b100 /
b100 4
#730
0!
0"
#735
1!
1"
b1000 *
b100 6
15
1)
b100 $
#738
0&
0,
0'
0-
0(
0.
b10 %
b10 /
b10 4
02
01
00
#740
0!
0"
#745
1!
1"
b100 *
1+
b0 6
05
0)
b0 $
#748
1'
1-
1(
1.
b1101 %
b1101 /
b1101 4
12
11
#750
0!
0"
#755
1!
1"
b1000 6
b0 *
0+
b1000 $
#758
1&
1,
b111 %
b111 /
b111 4
10
#760
0!
0"
#765
1!
1"
b1000 *
b111 6
15
1)
b111 $
#768
0&
0,
b1001 %
b1001 /
b1001 4
00
#770
0!
0"
#775
1!
1"
b11 6
b1011 6
b111 *
1+
b1011 $
#778
1&
1,
b1 %
b1 /
b1 4
10
#780
0!
0"
#785
1!
1"
b1011 *
b1 6
b1 $
#788
0'
0-
0(
0.
b101 %
b101 /
b101 4
02
01
#790
0!
0"
#795
1!
1"
b10 6
05
b1 *
0)
b10 $
#798
b1110 %
b1110 /
b1110 4
#800
0!
0"
#805
1!
1"
b100 6
b10 *
0+
b100 $
#808
0&
0,
1'
1-
b0 %
b0 /
b0 4
11
00
#810
0!
0"
#815
1!
1"
b10 6
b100 *
b10 $
#818
0'
0-
b110 %
b110 /
b110 4
01
#820
0!
0"
#825
1!
1"
b10 *
b0 6
b0 $
#828
1&
1,
b1001 %
b1001 /
b1001 4
10
#830
0!
0"
#835
1!
1"
b0 *
#838
0&
0,
b10 %
b10 /
b10 4
00
#840
0!
0"
#845
1!
1"
#848
1&
1,
1'
1-
1(
1.
b11 %
b11 /
b11 4
12
11
10
#850
0!
0"
#855
1!
1"
b11 6
b11 $
#858
0'
0-
b1 %
b1 /
b1 4
01
#860
0!
0"
#865
1!
1"
b110 6
b111 6
b11 *
b111 $
#868
b1100 %
b1100 /
b1100 4
#870
0!
0"
#875
1!
1"
b1110 6
b1111 6
15
b111 *
1)
b1111 $
#878
0&
0,
1'
1-
b110 %
b110 /
b110 4
11
00
#880
0!
0"
#885
1!
1"
b111 6
b1111 6
b1111 *
1+
#888
1&
1,
0'
0-
0(
0.
b101 %
b101 /
b101 4
02
01
10
#890
0!
0"
#895
1!
1"
b1110 6
b1110 $
#898
0&
0,
b100 %
b100 /
b100 4
00
#900
0!
0"
#905
1!
1"
b1110 *
b0 6
b0 $
#908
1&
1,
1'
1-
1(
1.
b1001 %
b1001 /
b1001 4
12
11
10
#910
0!
0"
#915
1!
1"
b0 *
b1001 6
05
0)
b1001 $
#918
0&
0,
b1111 %
b1111 /
b1111 4
00
#920
0!
0"
#925
1!
1"
b100 6
b1100 6
b1001 *
0+
b1100 $
#928
1&
1,
b1 %
b1 /
b1 4
10
#930
0!
0"
#935
1!
1"
b1100 *
b1 6
15
1)
b1 $
#938
0&
0,
0(
0.
b1101 %
b1101 /
b1101 4
02
00
#940
0!
0"
#945
1!
1"
b0 6
05
b1 *
1+
0)
b0 $
#948
0'
0-
1(
1.
b10 %
b10 /
b10 4
12
01
#950
0!
0"
#955
1!
1"
b0 *
0+
#958
0(
0.
b0 %
b0 /
b0 4
02
#960
0!
0"
#965
1!
1"
#968
1&
1,
b1010 %
b1010 /
b1010 4
10
#970
0!
0"
#975
1!
1"
#978
0&
0,
b1011 %
b1011 /
b1011 4
00
#980
0!
0"
#985
1!
1"
#988
1'
1-
b10 %
b10 /
b10 4
11
#990
0!
0"
#995
1!
1"
#998
1&
1,
0'
0-
1(
1.
b1011 %
b1011 /
b1011 4
12
01
10
#1000
0!
0"
#1005
1!
1"
b1 6
b1 $
#1008
0&
0,
1'
1-
0(
0.
b1001 %
b1001 /
b1001 4
02
11
00
#1010
0!
0"
#1015
1!
1"
b0 6
b1 *
b0 $
#1018
0'
0-
b1100 %
b1100 /
b1100 4
01
#1020
0!
0"
#1025
1!
1"
b0 *
#1028
1&
1,
1(
1.
b1000 %
b1000 /
b1000 4
12
10
#1030
0!
0"
#1035
1!
1"
b1 6
b1 $
#1038
1'
1-
0(
0.
b11 %
b11 /
b11 4
02
11
#1040
0!
0"
#1045
1!
1"
b1 *
b11 6
b11 $
#1048
0&
0,
1(
1.
b1111 %
b1111 /
b1111 4
12
00
#1050
0!
0"
#1055
1!
1"
b1 6
b1001 6
15
b11 *
1)
b1001 $
#1058
b0 %
b0 /
b0 4
#1060
0!
0"
#1065
1!
1"
b100 6
b1100 6
05
b1001 *
1+
0)
b1100 $
#1070
0!
0"
#1075
1!
1"
b110 6
b1110 6
b1100 *
0+
b1110 $
#1078
b1010 %
b1010 /
b1010 4
#1080
0!
0"
#1085
1!
1"
b111 6
b1111 6
15
b1110 *
1)
b1111 $
#1088
0(
0.
b100 %
b100 /
b100 4
02
#1090
0!
0"
#1095
1!
1"
b111 6
b1111 *
1+
b111 $
#1098
1&
1,
b10 %
b10 /
b10 4
10
#1100
0!
0"
#1105
1!
1"
b111 *
b10 6
05
0)
b10 $
#1108
0'
0-
b111 %
b111 /
b111 4
01
#1110
0!
0"
#1115
1!
1"
b100 6
b10 *
0+
b100 $
#1118
1(
1.
b0 %
b0 /
b0 4
12
#1120
0!
0"
#1125
1!
1"
b1000 6
b1001 6
15
b100 *
1)
b1001 $
#1128
1'
1-
0(
0.
b1001 %
b1001 /
b1001 4
02
11
#1130
0!
0"
#1135
1!
1"
b1001 *
1+
#1138
b1 %
b1 /
b1 4
#1140
0!
0"
#1145
1!
1"
b1 6
b1 $
#1148
b1000 %
b1000 /
b1000 4
#1150
0!
0"
#1155
1!
1"
b1 *
b1000 6
05
0)
b1000 $
#1158
0'
0-
b111 %
b111 /
b111 4
01
#1160
0!
0"
#1165
1!
1"
b0 6
b1000 *
0+
b0 $
#1168
0&
0,
1(
1.
b101 %
b101 /
b101 4
12
00
#1170
0!
0"
#1175
1!
1"
b0 *
#1178
1'
1-
0(
0.
b1001 %
b1001 /
b1001 4
02
11
#1180
0!
0"
#1185
1!
1"
#1188
1&
1,
1(
1.
b0 %
b0 /
b0 4
12
10
#1190
0!
0"
#1195
1!
1"
#1198
0&
0,
0(
0.
b1111 %
b1111 /
b1111 4
02
00
#1200
0!
0"
#1205
1!
1"
#1208
1(
1.
b1000 %
b1000 /
b1000 4
12
#1210
0!
0"
#1215
1!
1"
b1000 6
b1000 $
#1218
b101 %
b101 /
b101 4
#1220
0!
0"
#1225
1!
1"
b100 6
b1100 6
b1000 *
b1100 $
#1228
0'
0-
b1000 %
b1000 /
b1000 4
01
#1230
0!
0"
#1235
1!
1"
b1100 *
b0 6
15
1)
b0 $
#1238
1'
1-
b111 %
b111 /
b111 4
11
#1240
0!
0"
#1245
1!
1"
b1000 6
05
b0 *
1+
0)
b1000 $
#1248
b1000 %
b1000 /
b1000 4
#1250
0!
0"
#1255
1!
1"
b100 6
b1100 6
b1000 *
0+
b1100 $
#1258
0'
0-
b1 %
b1 /
b1 4
01
#1260
0!
0"
#1265
1!
1"
b1100 *
b0 6
15
1)
b0 $
#1268
1&
1,
0(
0.
b1100 %
b1100 /
b1100 4
02
10
#1270
0!
0"
#1275
1!
1"
05
b0 *
1+
0)
#1278
1'
1-
1(
1.
b1111 %
b1111 /
b1111 4
12
11
#1280
0!
0"
#1285
1!
1"
0+
b1111 6
b1111 $
#1288
0&
0,
b11 %
b11 /
b11 4
00
#1290
0!
0"
#1295
1!
1"
b111 6
b1111 6
15
b1111 *
1)
#1298
1&
1,
b1001 %
b1001 /
b1001 4
10
#1300
0!
0"
#1305
1!
1"
1+
b1001 6
b1001 $
#1308
0&
0,
0(
0.
b100 %
b100 /
b100 4
02
00
#1310
0!
0"
#1315
1!
1"
b100 6
05
b1001 *
0)
b100 $
#1318
1(
1.
b101 %
b101 /
b101 4
12
#1320
0!
0"
#1325
1!
1"
b10 6
b1010 6
b100 *
0+
b1010 $
#1328
1&
1,
b1111 %
b1111 /
b1111 4
10
#1330
0!
0"
#1335
1!
1"
b1010 *
b1111 6
15
1)
b1111 $
#1338
0(
0.
b110 %
b110 /
b110 4
02
#1340
0!
0"
#1345
1!
1"
b1111 *
1+
b110 6
b110 $
#1348
0&
0,
b1100 %
b1100 /
b1100 4
00
#1350
0!
0"
#1355
1!
1"
b11 6
b110 *
b11 $
#1358
1(
1.
b1000 %
b1000 /
b1000 4
12
#1360
0!
0"
#1365
1!
1"
b1 6
b1001 6
b11 *
b1001 $
#1368
0'
0-
b1001 %
b1001 /
b1001 4
01
#1370
0!
0"
#1375
1!
1"
b1001 *
b0 6
b0 $
#1378
1'
1-
0(
0.
b11 %
b11 /
b11 4
02
11
#1380
0!
0"
#1385
1!
1"
05
b0 *
0)
#1388
0'
0-
b1001 %
b1001 /
b1001 4
01
#1390
0!
0"
#1395
1!
1"
0+
#1398
1&
1,
1'
1-
b101 %
b101 /
b101 4
11
10
#1400
0!
0"
#1405
1!
1"
b101 6
b101 $
#1408
0&
0,
00
#1410
0!
0"
#1415
1!
1"
b10 6
b101 *
b10 $
#1418
1&
1,
0'
0-
b1000 %
b1000 /
b1000 4
01
10
#1420
0!
0"
#1425
1!
1"
b100 6
b10 *
b100 $
#1428
0&
0,
1'
1-
1(
1.
12
11
00
#1430
0!
0"
#1435
1!
1"
b10 6
b1010 6
b100 *
b1010 $
#1438
0(
0.
b1011 %
b1011 /
b1011 4
02
#1440
0!
0"
#1445
1!
1"
b101 6
15
b1010 *
1)
b101 $
#1448
1(
1.
b0 %
b0 /
b0 4
12
#1450
0!
0"
#1455
1!
1"
b10 6
b1010 6
05
b101 *
1+
0)
b1010 $
#1458
1&
1,
0(
0.
02
10
#1460
0!
0"
#1465
1!
1"
b1010 *
0+
b0 6
15
1)
b0 $
#1468
0&
0,
0'
0-
1(
1.
b1101 %
b1101 /
b1101 4
12
01
00
#1470
0!
0"
#1475
1!
1"
b0 *
1+
05
0)
#1478
1&
1,
1'
1-
b100 %
b100 /
b100 4
11
10
#1480
0!
0"
#1485
1!
1"
0+
b100 6
b100 $
#1488
0&
0,
0'
0-
0(
0.
b1110 %
b1110 /
b1110 4
02
01
00
#1490
0!
0"
#1495
1!
1"
b100 *
b0 6
b0 $
#1498
1(
1.
b11 %
b11 /
b11 4
12
#1500
0!
0"
#1505
1!
1"
b0 *
#1508
1&
1,
1'
1-
11
10
#1510
0!
0"
#1515
1!
1"
b11 6
b11 $
#1518
0'
0-
0(
0.
b1110 %
b1110 /
b1110 4
02
01
#1520
0!
0"
#1525
1!
1"
b110 6
b11 *
b110 $
#1528
0&
0,
b1001 %
b1001 /
b1001 4
00
#1530
0!
0"
#1535
1!
1"
b110 *
b0 6
b0 $
#1538
1&
1,
1(
1.
b1000 %
b1000 /
b1000 4
12
10
#1540
0!
0"
#1545
1!
1"
b1 6
b0 *
b1 $
#1548
1'
1-
b1100 %
b1100 /
b1100 4
11
#1550
0!
0"
#1555
1!
1"
b1 *
b1100 6
b1100 $
#1558
0&
0,
0'
0-
b101 %
b101 /
b101 4
01
00
#1560
0!
0"
#1565
1!
1"
b1100 *
b0 6
15
1)
b0 $
#1568
1'
1-
0(
0.
b100 %
b100 /
b100 4
02
11
#1570
0!
0"
#1575
1!
1"
05
b0 *
1+
0)
#1578
0'
0-
b1000 %
b1000 /
b1000 4
01
#1580
0!
0"
#1585
1!
1"
0+
#1588
1&
1,
b11 %
b11 /
b11 4
10
#1590
0!
0"
#1595
1!
1"
#1598
0&
0,
1(
1.
12
00
#1600
0!
0"
#1605
1!
1"
#1608
1&
1,
0(
0.
b1001 %
b1001 /
b1001 4
02
10
#1610
0!
0"
#1615
1!
1"
#1618
1'
1-
1(
1.
b1000 %
b1000 /
b1000 4
12
11
#1620
0!
0"
#1625
1!
1"
b1000 6
b1000 $
#1628
b1011 %
b1011 /
b1011 4
#1630
0!
0"
#1635
1!
1"
b1000 *
b1011 6
15
1)
b1011 $
#1638
0&
0,
0(
0.
b100 %
b100 /
b100 4
02
00
#1640
0!
0"
#1645
1!
1"
b101 6
b1011 *
1+
b101 $
#1648
1&
1,
0'
0-
b1001 %
b1001 /
b1001 4
01
10
#1650
0!
0"
#1655
1!
1"
b1010 6
b101 *
b1010 $
#1658
0&
0,
b0 %
b0 /
b0 4
00
#1660
0!
0"
#1665
1!
1"
b1010 *
b0 6
b0 $
#1668
1(
1.
b1011 %
b1011 /
b1011 4
12
#1670
0!
0"
#1675
1!
1"
b0 *
05
0)
#1678
b1 %
b1 /
b1 4
#1680
0!
0"
#1685
1!
1"
0+
#1688
1&
1,
1'
1-
b1111 %
b1111 /
b1111 4
11
10
#1690
0!
0"
#1695
1!
1"
b1111 6
b1111 $
#1698
0'
0-
b110 %
b110 /
b110 4
01
#1700
0!
0"
#1705
1!
1"
b1110 6
b1111 6
15
b1111 *
1)
#1708
0&
0,
b111 %
b111 /
b111 4
00
#1710
0!
0"
#1715
1!
1"
1+
b0 6
b0 $
#1718
1'
1-
b101 %
b101 /
b101 4
11
#1720
0!
0"
#1725
1!
1"
b1000 6
05
b0 *
0)
b1000 $
#1728
0'
0-
0(
0.
b1010 %
b1010 /
b1010 4
02
01
#1730
0!
0"
#1735
1!
1"
b1000 *
0+
b0 6
15
1)
b0 $
#1738
1&
1,
1'
1-
1(
1.
b1110 %
b1110 /
b1110 4
12
11
10
#1740
0!
0"
#1745
1!
1"
b0 *
1+
b1110 6
05
0)
b1110 $
#1748
0'
0-
0(
0.
b100 %
b100 /
b100 4
02
01
#1750
0!
0"
#1755
1!
1"
b1100 6
15
b1110 *
0+
1)
b1100 $
#1758
0&
0,
b1000 %
b1000 /
b1000 4
00
#1760
0!
0"
#1765
1!
1"
b1100 *
1+
b0 6
b0 $
#1768
1&
1,
b11 %
b11 /
b11 4
10
#1770
0!
0"
#1775
1!
1"
05
b0 *
0)
#1778
1'
1-
1(
1.
b1111 %
b1111 /
b1111 4
12
11
#1780
0!
0"
#1785
1!
1"
0+
b1111 6
b1111 $
#1788
0&
0,
0'
0-
0(
0.
b100 %
b100 /
b100 4
02
01
00
#1790
0!
0"
#1795
1!
1"
b1111 *
b0 6
15
1)
b0 $
#1798
1&
1,
1'
1-
11
10
#1800
0!
0"
#1805
1!
1"
b0 *
1+
b100 6
05
0)
b100 $
#1808
1(
1.
b1001 %
b1001 /
b1001 4
12
#1810
0!
0"
#1815
1!
1"
b100 *
0+
b1001 6
b1001 $
#1818
0'
0-
0(
0.
b1100 %
b1100 /
b1100 4
02
01
#1820
0!
0"
#1825
1!
1"
b10 6
b1001 *
b10 $
#1828
1(
1.
b1110 %
b1110 /
b1110 4
12
#1830
0!
0"
#1835
1!
1"
b100 6
b101 6
b10 *
b101 $
#1838
0&
0,
0(
0.
b0 %
b0 /
b0 4
02
00
#1840
0!
0"
#1845
1!
1"
b101 *
b0 6
b0 $
#1848
1&
1,
1(
1.
b11 %
b11 /
b11 4
12
10
#1850
0!
0"
#1855
1!
1"
b1 6
b0 *
b1 $
#1858
0&
0,
1'
1-
b1010 %
b1010 /
b1010 4
11
00
#1860
0!
0"
#1865
1!
1"
b0 6
b1000 6
b1 *
b1000 $
#1868
1&
1,
0'
0-
b1 %
b1 /
b1 4
01
10
#1870
0!
0"
#1875
1!
1"
b0 6
b1 6
b1000 *
b1 $
#1878
0&
0,
b101 %
b101 /
b101 4
00
#1880
0!
0"
#1885
1!
1"
b1 *
b0 6
b0 $
#1888
0(
0.
b0 %
b0 /
b0 4
02
#1890
0!
0"
#1895
1!
1"
b0 *
#1898
1&
1,
1'
1-
1(
1.
b1100 %
b1100 /
b1100 4
12
11
10
#1900
0!
0"
#1905
1!
1"
b1100 6
b1100 $
#1908
0&
0,
b11 %
b11 /
b11 4
00
#1910
0!
0"
#1915
1!
1"
b110 6
b1110 6
b1100 *
b1110 $
#1918
1&
1,
0'
0-
0(
0.
b1001 %
b1001 /
b1001 4
02
01
10
#1920
0!
0"
#1925
1!
1"
b1100 6
15
b1110 *
1)
b1100 $
#1928
b111 %
b111 /
b111 4
#1930
0!
0"
#1935
1!
1"
b1000 6
b1100 *
1+
b1000 $
#1938
0&
0,
1'
1-
b101 %
b101 /
b101 4
11
00
#1940
0!
0"
#1945
1!
1"
b100 6
05
b1000 *
0)
b100 $
#1948
1&
1,
0'
0-
b10 %
b10 /
b10 4
01
10
#1950
0!
0"
#1955
1!
1"
b1000 6
15
b100 *
0+
1)
b1000 $
#1958
0&
0,
1(
1.
b100 %
b100 /
b100 4
12
00
#1960
0!
0"
#1965
1!
1"
b1000 *
1+
b0 6
b0 $
#1968
1&
1,
0(
0.
02
10
#1970
0!
0"
#1975
1!
1"
05
b0 *
0)
#1978
b111 %
b111 /
b111 4
#1980
0!
0"
#1985
1!
1"
0+
#1988
0&
0,
1'
1-
1(
1.
b11 %
b11 /
b11 4
12
11
00
#1990
0!
0"
#1995
1!
1"
b1000 6
b1000 $
#1998
1&
1,
0(
0.
b1011 %
b1011 /
b1011 4
02
10
#2000
0!
0"
#2005
1!
1"
b1000 *
b1011 6
15
1)
b1011 $
#2008
0'
0-
b1101 %
b1101 /
b1101 4
01
#2010
0!
0"
#2015
1!
1"
b110 6
05
b1011 *
1+
0)
b110 $
#2018
0&
0,
1'
1-
1(
1.
b101 %
b101 /
b101 4
12
11
00
#2020
0!
0"
#2025
1!
1"
b11 6
b1011 6
15
b110 *
0+
1)
b1011 $
#2028
1&
1,
0(
0.
b11 %
b11 /
b11 4
02
10
#2030
0!
0"
#2035
1!
1"
b1011 *
1+
b11 6
b11 $
#2038
0&
0,
b101 %
b101 /
b101 4
00
#2040
0!
0"
#2045
1!
1"
b1 6
b11 *
b1 $
#2048
1&
1,
0'
0-
b1110 %
b1110 /
b1110 4
01
10
#2050
0!
0"
#2055
1!
1"
b10 6
05
b1 *
0)
b10 $
#2058
0&
0,
1'
1-
1(
1.
b0 %
b0 /
b0 4
12
11
00
#2060
0!
0"
#2065
1!
1"
b1 6
b1001 6
15
b10 *
0+
1)
b1001 $
#2068
b111 %
b111 /
b111 4
#2070
0!
0"
#2075
1!
1"
b100 6
b1100 6
05
b1001 *
1+
0)
b1100 $
#2078
1&
1,
0(
0.
b110 %
b110 /
b110 4
02
10
#2080
0!
0"
#2085
1!
1"
b1100 *
0+
b110 6
15
1)
b110 $
#2088
0&
0,
0'
0-
1(
1.
b1100 %
b1100 /
b1100 4
12
01
00
#2090
0!
0"
#2095
1!
1"
b110 *
1+
b0 6
05
0)
b0 $
#2098
1'
1-
0(
0.
b1001 %
b1001 /
b1001 4
02
11
#2100
0!
0"
#2105
1!
1"
b0 *
0+
#2108
0'
0-
1(
1.
b1010 %
b1010 /
b1010 4
12
01
#2110
0!
0"
#2115
1!
1"
#2118
0(
0.
b11 %
b11 /
b11 4
02
#2120
0!
0"
#2125
1!
1"
#2128
1'
1-
1(
1.
b10 %
b10 /
b10 4
12
11
#2130
0!
0"
#2135
1!
1"
b1000 6
b1000 $
#2138
0(
0.
b1 %
b1 /
b1 4
02
#2140
0!
0"
#2145
1!
1"
b100 6
b1000 *
b100 $
#2148
1&
1,
1(
1.
b0 %
b0 /
b0 4
12
10
#2150
0!
0"
#2155
1!
1"
b100 *
b0 6
b0 $
#2158
0'
0-
0(
0.
b1 %
b1 /
b1 4
02
01
#2160
0!
0"
