truth_table/top.vcd
$date
    Jun 12, 2023  11:58:24
$end
$version
    TOOL:	xmsim	21.03-s001
$end
$timescale
    1 ns
$end

$scope module top $end
$var reg       1 !    clk $end

$scope module i1 $end
$var wire      1 "    clk  $end
$var reg       4 #    a [3:0] $end
$var reg       1 $    rst $end
$var reg       2 %    y [1:0] $end

$scope clocking cb $end
$var reg       4 &    a [3:0] $end
$var reg       2 '    y [1:0] $end
$upscope $end

$upscope $end


$scope module Dut $end
$var wire      4 (    a [3:0] $end
$var wire      1 "    clk  $end
$var wire      1 )    rst  $end
$var reg       2 *    y [1:0] $end
$upscope $end

$upscope $end

$enddefinitions $end
$dumpvars
0!
0"
bx #
0$
bx %
bx &
bx '
bx (
0)
bx *
$end
#5
1!
1"
#7
bx1 #
bx1 &
bx1 (
#10
0!
0"
1$
1)
b0 *
b0 %
#15
1!
1"
b0 '
#20
0!
0"
0$
0)
#25
1!
1"
b1 *
b11 *
b11 %
#30
0!
0"
#35
1!
1"
b11 '
#40
0!
0"
#45
1!
1"
#50
0!
0"
#55
1!
1"
#57
bx1x0 #
bx1x0 &
bx1x0 (
#60
0!
0"
#65
1!
1"
b1 *
b1 %
#67
bx010 #
bx010 &
bx010 (
#70
0!
0"
#75
1!
1"
b1 '
b0 *
b10 *
b10 %
#77
b1000 #
b1000 &
b1000 (
#80
0!
0"
#85
1!
1"
b10 '
b0 *
b0 %
#90
0!
0"
#95
1!
1"
b0 '
#100
0!
0"
#105
1!
1"
#110
0!
0"
#115
1!
1"
#120
0!
0"
#125
1!
1"
#130
0!
0"
#135
1!
1"
#140
0!
0"
#145
1!
1"
#150
0!
0"
#155
1!
1"
#160
0!
0"
#165
1!
1"
#170
0!
0"
#175
1!
1"
#180
0!
0"
#185
1!
1"
#190
0!
0"
#195
1!
1"
#200
0!
0"
#205
1!
1"
#207
b1001 #
b1001 &
b1001 (
#210
0!
0"
#215
1!
1"
#217
b1010 #
b1010 &
b1010 (
#220
0!
0"
#225
1!
1"
#227
b1011 #
b1011 &
b1011 (
#230
0!
0"
#235
1!
1"
#237
b1100 #
b1100 &
b1100 (
#240
0!
0"
#245
1!
1"
#247
b1101 #
b1101 &
b1101 (
#250
0!
0"
#255
1!
1"
#257
b1110 #
b1110 &
b1110 (
#260
0!
0"
#265
1!
1"
#267
b1111 #
b1111 &
b1111 (
#270
0!
0"
#275
1!
1"
#277
b0 #
b0 &
b0 (
#280
0!
0"
#285
1!
1"
#287
b1 #
b1 &
b1 (
#290
0!
0"
#295
1!
1"
#297
b10 #
b10 &
b10 (
#300
0!
0"
#305
1!
1"
#307
b11 #
b11 &
b11 (
#310
0!
0"
#315
1!
1"
#317
b100 #
b100 &
b100 (
#320
0!
0"
#325
1!
1"
#327
b101 #
b101 &
b101 (
#330
0!
0"
#335
1!
1"
#337
b110 #
b110 &
b110 (
#340
0!
0"
#345
1!
1"
#347
b111 #
b111 &
b111 (
#350
0!
0"
#355
1!
1"
#357
b1000 #
b1000 &
b1000 (
#360
0!
0"
#365
1!
1"
#367
b1001 #
b1001 &
b1001 (
#370
0!
0"
#375
1!
1"
#377
b1010 #
b1010 &
b1010 (
#380
0!
0"
#385
1!
1"
#387
b1011 #
b1011 &
b1011 (
#390
0!
0"
#395
1!
1"
#397
b1100 #
b1100 &
b1100 (
#400
0!
0"
#405
1!
1"
#407
b1101 #
b1101 &
b1101 (
#410
0!
0"
#415
1!
1"
#417
b1110 #
b1110 &
b1110 (
#420
0!
0"
#425
1!
1"
#427
b1111 #
b1111 &
b1111 (
#430
0!
0"
#435
1!
1"
#437
b0 #
b0 &
b0 (
#440
0!
0"
#445
1!
1"
#447
b1 #
b1 &
b1 (
#450
0!
0"
#455
1!
1"
#457
b10 #
b10 &
b10 (
