lab1/d_ff/top.vcd
$date
    Jun  5, 2023  11:57:49
$end
$version
    TOOL:	xmsim	21.03-s001
$end
$timescale
    1 ns
$end

$scope module top $end
$var reg       1 !    clk $end

$scope module i1 $end
$var wire      1 "    clk  $end
$var reg       1 #    d $end
$var reg       1 $    reset $end
$var reg       1 %    set $end
$var reg       1 &    q $end
$upscope $end

$upscope $end

$enddefinitions $end
$dumpvars
0!
0"
0#
0$
0%
x&
$end
#5
1!
1"
0&
#10
1$
1%
0!
0"
#15
1!
1"
#20
0$
0!
0"
#25
1!
1"
1&
#30
1#
0%
0!
0"
#35
1!
1"
#40
0#
0!
0"
#45
1!
1"
0&
#50
1#
0!
0"
#55
1!
1"
1&
#60
0#
0!
0"
#65
1!
1"
0&
