lab1/d_ff/xrun.log
xrun: 21.03-s001: (c) Copyright 1995-2021 Cadence Design Systems, Inc.
TOOL:	xrun	21.03-s001: Started on Jun 05, 2023 at 11:57:47 IST
xrun
	+access+r
	+xmcoverage+all
	-covoverwrite
	d_ff.sv
	D_inter.sv
	test.sv
	top.sv
Recompiling... reason: file './D_inter.sv' is newer than expected.
	expected: Mon Jun  5 11:51:47 2023
	actual:   Mon Jun  5 11:57:40 2023
file: D_inter.sv
	interface worklib.Dff_inter:sv
		errors: 0, warnings: 0
		Caching library 'worklib' ....... Done
	Elaborating the design hierarchy:
	Top level design units:
		top
xmelab: *W,DSEMEL: This SystemVerilog design will be simulated as per IEEE 1800-2009 SystemVerilog simulation semantics. Use -disable_sem2009 option for turning off SV 2009 simulation semantics.

	Extracting FSMs for coverage:
		worklib.d_ff
		worklib.test
		worklib.top
	Total FSMs extracted = 0
	Building instance overlay tables: .................... Done
	Enabling instrumentation for coverage types: block expression FSM toggle functional
xmelab: *W,COVDCL: By default expression coverage is scored only for Verilog logical operators (|| and &&) and VHDL logical operators (OR, AND, NOR, and NAND), and is scored only in condition expressions. To score coverage for other operators and for expressions in other statements, use the "set_expr_coverable_operators" and "set_expr_coverable_statements" coverage configuration file commands with suitable options at elaboration.
	Generating native compiled code:
		worklib.test:sv <0x0fd0be18>
			streams:   1, words:  5920
		worklib.d_ff:sv <0x1d5de560>
			streams:   4, words:  1952
		worklib.top:sv <0x152f4865>
			streams:   4, words:  4608
	Building instance specific data structures.
	Loading native compiled code:     .................... Done
	Design hierarchy summary:
		             Instances  Unique
		Modules:             3       3
		Interfaces:          1       1
		Registers:           5       5
		Scalar wires:        1       -
		Always blocks:       2       2
		Initial blocks:      2       2
		Pseudo assignments:  1       1
	Writing initial simulation snapshot: worklib.top:sv
Loading snapshot worklib.top:sv .................... Done
xmsim: *W,DSEM2009: This SystemVerilog design is simulated as per IEEE 1800-2009 SystemVerilog simulation semantics. Use -disable_sem2009 option for turning off SV 2009 simulation semantics.
xcelium> source /cadence_tools/XCELIUM2103/tools/xcelium/files/xmsimrc
xcelium> run
time=                   0, clk=0, reset=0,set=0, d=0, q=x
time=                   5, clk=1, reset=0,set=0, d=0, q=0
time=                  10, clk=0, reset=1,set=1, d=0, q=0
time=                  15, clk=1, reset=1,set=1, d=0, q=0
time=                  20, clk=0, reset=0,set=1, d=0, q=0
time=                  25, clk=1, reset=0,set=1, d=0, q=1
time=                  30, clk=0, reset=0,set=0, d=1, q=1
time=                  35, clk=1, reset=0,set=0, d=1, q=1
time=                  40, clk=0, reset=0,set=0, d=0, q=1
time=                  45, clk=1, reset=0,set=0, d=0, q=0
time=                  50, clk=0, reset=0,set=0, d=1, q=0
time=                  55, clk=1, reset=0,set=0, d=1, q=1
time=                  60, clk=0, reset=0,set=0, d=0, q=1
time=                  65, clk=1, reset=0,set=0, d=0, q=0
time=                  70, clk=0, reset=0,set=0, d=0, q=0
time=                  75, clk=1, reset=0,set=0, d=0, q=0
time=                  80, clk=0, reset=0,set=0, d=0, q=0
time=                  85, clk=1, reset=0,set=0, d=0, q=0
time=                  90, clk=0, reset=0,set=0, d=0, q=0
time=                  95, clk=1, reset=0,set=0, d=0, q=0
time=                 100, clk=0, reset=0,set=0, d=0, q=0
time=                 105, clk=1, reset=0,set=0, d=0, q=0
time=                 110, clk=0, reset=0,set=0, d=0, q=0
time=                 115, clk=1, reset=0,set=0, d=0, q=0
time=                 120, clk=0, reset=0,set=0, d=0, q=0
time=                 125, clk=1, reset=0,set=0, d=0, q=0
time=                 130, clk=0, reset=0,set=0, d=0, q=0
time=                 135, clk=1, reset=0,set=0, d=0, q=0
time=                 140, clk=0, reset=0,set=0, d=0, q=0
time=                 145, clk=1, reset=0,set=0, d=0, q=0
time=                 150, clk=0, reset=0,set=0, d=0, q=0
time=                 155, clk=1, reset=0,set=0, d=0, q=0
Simulation complete via $finish(1) at time 160 NS + 0
./test.sv:23 $finish;
xcelium> exit

coverage setup:
  workdir  :  ./cov_work
  dutinst  :  top(top)
  scope    :  scope
  testname :  test

coverage files:
  model(design data) :  ./cov_work/scope/icc_31148b9d_00000000.ucm
  data               :  ./cov_work/scope/test/icc_31148b9d_00000000.ucd
TOOL:	xrun	21.03-s001: Exiting on Jun 05, 2023 at 11:57:49 IST  (total: 00:00:02)
