USR/usr/top.vcd
$date
    May 16, 2023  20:40:59
$end
$version
    TOOL:	xmsim	21.03-s001
$end
$timescale
    1 ns
$end

$scope module top $end
$var reg       1 !    clk $end

$scope module i1 $end
$var wire      1 "    clk  $end
$var reg       1 #    s0 $end
$var reg       1 $    s1 $end
$var reg       1 %    sin $end
$var reg       1 &    sout $end
$var reg       1 '    rst $end
$var reg       4 (    pout [3:0] $end
$var reg       4 )    pin [3:0] $end
$upscope $end

$upscope $end

$enddefinitions $end
$dumpvars
0!
0"
1#
1$
x%
x&
0'
bx (
b1010 )
$end
#5
1!
1"
b1010 (
#10
1'
0!
0"
b0 (
b1010 (
1&
#15
1!
1"
b0 (
b1010 (
#20
0'
b0 )
0$
1%
0!
0"
#25
1!
1"
b100 (
b101 (
0&
#30
0!
0"
#35
1!
1"
b1010 (
b1011 (
1&
#40
0%
0!
0"
#45
1!
1"
b110 (
0&
#50
1%
0!
0"
#55
1!
1"
b1100 (
b1101 (
1&
#60
1$
0#
0!
0"
#65
1!
1"
b110 (
b1110 (
0&
#70
0%
0!
0"
#75
1!
1"
b111 (
1&
#80
0!
0"
#85
1!
1"
b11 (
#90
x$
0!
0"
#95
1!
1"
b0 (
0&
