counter/top.vcd
$date
    Jun 12, 2023  11:12:47
$end
$version
    TOOL:	xmsim	21.03-s001
$end
$timescale
    1 ns
$end

$scope module top $end
$var reg       1 !    clk $end

$scope module in $end
$var wire      1 "    clk  $end
$var reg       4 #    count [3:0] $end
$var reg       1 $    rst $end
$upscope $end

$upscope $end

$enddefinitions $end
$dumpvars
0!
0"
bx #
0$
$end
#5
1!
1"
#10
1$
0!
0"
b0 #
#15
1!
1"
#20
0$
0!
0"
#25
1!
1"
b1 #
#30
0!
0"
#35
1!
1"
b10 #
#40
0!
0"
#45
1!
1"
b11 #
#50
0!
0"
#55
1!
1"
b100 #
#60
0!
0"
#65
1!
1"
b101 #
#70
0!
0"
#75
1!
1"
b110 #
#80
0!
0"
#85
1!
1"
b111 #
#90
0!
0"
#95
1!
1"
b1000 #
#100
0!
0"
#105
1!
1"
b1001 #
#110
0!
0"
#115
1!
1"
b1010 #
#120
0!
0"
#125
1!
1"
b1011 #
#130
0!
0"
#135
1!
1"
b1100 #
#140
0!
0"
#145
1!
1"
b1101 #
#150
0!
0"
#155
1!
1"
b1110 #
#160
0!
0"
#165
1!
1"
b1111 #
#170
0!
0"
#175
1!
1"
b0 #
#180
0!
0"
#185
1!
1"
b1 #
#190
0!
0"
#195
1!
1"
b10 #
#200
0!
0"
#205
1!
1"
b11 #
#210
0!
0"
#215
1!
1"
b100 #
#220
0!
0"
#225
1!
1"
b101 #
#230
0!
0"
#235
1!
1"
b110 #
#240
0!
0"
#245
1!
1"
b111 #
#250
0!
0"
#255
1!
1"
b1000 #
#260
0!
0"
#265
1!
1"
b1001 #
#270
0!
0"
#275
1!
1"
b1010 #
#280
0!
0"
#285
1!
1"
b1011 #
#290
0!
0"
#295
1!
1"
b1100 #
#300
0!
0"
#305
1!
1"
b1101 #
#310
0!
0"
#315
1!
1"
b1110 #
#320
0!
0"
#325
1!
1"
b1111 #
#330
0!
0"
#335
1!
1"
b0 #
#340
0!
0"
#345
1!
1"
b1 #
#350
0!
0"
#355
1!
1"
b10 #
#360
0!
0"
#365
1!
1"
b11 #
#370
0!
0"
#375
1!
1"
b100 #
#380
0!
0"
#385
1!
1"
b101 #
#390
0!
0"
#395
1!
1"
b110 #
#400
0!
0"
#405
1!
1"
b111 #
#410
0!
0"
#415
1!
1"
b1000 #
#420
0!
0"
#425
1!
1"
b1001 #
#430
0!
0"
#435
1!
1"
b1010 #
#440
0!
0"
#445
1!
1"
b1011 #
#450
0!
0"
#455
1!
1"
b1100 #
#460
0!
0"
#465
1!
1"
b1101 #
#470
0!
0"
#475
1!
1"
b1110 #
#480
0!
0"
#485
1!
1"
b1111 #
#490
0!
0"
#495
1!
1"
b0 #
